"service_id","monday","tuesday","wednesday","thursday","friday","saturday","sunday","start_date","end_date"
1,1,1,1,1,1,0,0,20181212,20190608
2,0,0,0,0,0,1,0,20181212,20190608
3,0,0,0,0,0,0,1,20181212,20190608
4,0,0,0,0,0,1,1,20181212,20190608
5,1,1,1,1,1,0,0,20181212,20190608
6,1,1,1,1,1,1,1,20181212,20190608
7,0,0,0,0,0,0,0,20181212,20190608
8,0,1,0,1,0,0,0,20181212,20190608
9,1,0,1,0,1,0,0,20181212,20190608
10,0,0,0,0,0,0,0,20181212,20190608
11,0,0,0,0,1,1,0,20181212,20190608
12,0,0,0,0,0,1,0,20181212,20190608
13,1,1,1,1,1,1,0,20181212,20190608
14,0,0,0,0,0,0,1,20181212,20190608
15,1,1,1,1,1,1,0,20181212,20190608
16,1,1,1,1,1,0,0,20181212,20190608
17,0,0,0,0,0,1,0,20181212,20190608
18,0,0,0,0,0,1,1,20181212,20190608
19,0,0,0,0,0,0,0,20181212,20190608
20,1,1,1,1,1,0,0,20181212,20190608
21,0,0,0,0,0,1,1,20181212,20190608
22,1,1,1,1,1,1,1,20181212,20190608
23,1,0,1,0,1,0,0,20181212,20190608
24,1,1,1,1,1,1,0,20181212,20190608
25,0,0,0,0,0,0,1,20181212,20190608
26,1,1,1,1,1,1,0,20181212,20190608
27,1,1,1,1,1,0,0,20181212,20190608
28,0,0,0,0,0,0,0,20181212,20190608
29,0,0,0,1,0,0,0,20181212,20190608
30,0,1,0,1,0,0,0,20181212,20190608
31,1,1,1,1,1,0,0,20181212,20190608
32,0,0,1,0,0,0,0,20181212,20190608
33,0,0,0,0,0,0,0,20181212,20190608
34,0,0,1,0,0,0,0,20181212,20190608
35,0,0,0,0,0,0,0,20181212,20190608
36,0,0,0,0,0,0,0,20181212,20190608
37,0,0,0,0,0,0,0,20181212,20190608
38,0,0,0,0,0,1,1,20181212,20190608
39,0,0,0,0,0,1,1,20181212,20190608
40,0,0,0,0,0,0,0,20181212,20190608
41,0,0,0,0,0,0,0,20181212,20190608
42,0,0,0,0,0,1,0,20181212,20190608
43,0,0,0,0,0,0,1,20181212,20190608
44,0,0,0,0,0,0,0,20181212,20190608
45,0,0,0,0,0,0,0,20181212,20190608
46,0,0,0,0,0,0,0,20181212,20190608
47,1,1,1,1,1,0,0,20181212,20190608
48,0,0,0,0,0,0,1,20181212,20190608
49,0,0,0,0,0,1,0,20181212,20190608
50,0,0,0,0,0,0,0,20181212,20190608
51,0,0,0,0,0,0,0,20181212,20190608
52,0,1,1,1,0,0,0,20181212,20190608
53,0,0,0,0,0,0,0,20181212,20190608
54,0,1,0,0,1,0,0,20181212,20190608
55,1,1,1,1,1,0,0,20181212,20190608
56,0,0,0,0,0,0,0,20181212,20190608
57,1,0,0,1,0,0,0,20181212,20190608
58,0,0,0,0,0,0,0,20181212,20190608
59,1,1,1,1,1,0,0,20181212,20190608
60,1,0,0,1,0,0,0,20181212,20190608
61,0,0,0,0,0,0,0,20181212,20190608
62,0,0,0,0,0,0,0,20181212,20190608
63,0,0,0,0,0,0,0,20181212,20190608
64,0,0,0,0,0,0,0,20181212,20190608
65,0,0,0,0,0,0,0,20181212,20190608
66,0,0,0,0,0,1,1,20181212,20190608
67,0,0,0,0,0,0,0,20181212,20190608
68,0,0,0,0,0,0,0,20181212,20190608
69,0,0,0,0,0,0,0,20181212,20190608
70,0,0,0,0,0,0,0,20181212,20190608
71,0,0,0,0,0,0,0,20181212,20190608
72,0,0,0,0,0,0,0,20181212,20190608
73,1,1,1,1,0,0,0,20181212,20190608
74,0,0,0,0,1,0,0,20181212,20190608
75,0,0,0,0,0,0,0,20181212,20190608
76,0,0,0,0,0,0,0,20181212,20190608
77,1,1,1,1,1,0,0,20181212,20190608
78,0,0,0,0,0,0,0,20181212,20190608
79,0,0,0,0,0,0,0,20181212,20190608
80,0,0,0,0,0,1,0,20181212,20190608
81,0,0,0,0,0,1,1,20181212,20190608
82,1,1,1,1,1,1,1,20181212,20190608
83,0,0,0,0,0,0,0,20181212,20190608
84,0,0,0,0,0,0,0,20181212,20190608
85,0,0,0,0,0,0,0,20181212,20190608
86,0,0,0,0,0,0,0,20181212,20190608
87,0,0,0,0,0,0,0,20181212,20190608
88,0,0,0,0,0,0,0,20181212,20190608
89,1,1,1,1,1,0,0,20181212,20190608
90,1,1,1,1,1,0,0,20181212,20190608
91,1,1,1,1,1,0,0,20181212,20190608
92,1,1,1,1,1,0,0,20181212,20190608
93,0,0,0,0,0,0,0,20181212,20190608
94,0,1,0,1,0,0,0,20181212,20190608
95,0,0,0,0,0,0,0,20181212,20190608
96,0,0,1,0,0,0,0,20181212,20190608
97,1,0,1,0,1,0,0,20181212,20190608
98,0,0,0,0,0,0,0,20181212,20190608
99,0,0,0,0,0,0,0,20181212,20190608
100,0,0,0,0,0,0,0,20181212,20190608
101,1,0,1,0,1,0,0,20181212,20190608
102,0,0,0,0,0,0,0,20181212,20190608
103,0,0,0,0,0,0,0,20181212,20190608
104,0,0,0,0,1,0,0,20181212,20190608
105,0,0,0,0,0,0,0,20181212,20190608
106,0,0,0,0,0,0,0,20181212,20190608
107,1,1,1,1,1,0,0,20181212,20190608
108,0,0,0,0,0,1,1,20181212,20190608
109,0,0,0,0,0,0,0,20181212,20190608
110,1,1,1,1,1,1,1,20181212,20190608
111,0,0,0,0,0,0,0,20181212,20190608
112,0,0,0,0,0,0,0,20181212,20190608
113,1,1,1,1,1,1,0,20181212,20190608
114,0,0,0,0,0,0,0,20181212,20190608
115,1,1,1,1,1,1,1,20181212,20190608
116,0,0,0,0,1,1,0,20181212,20190608
117,1,1,1,1,1,0,0,20181212,20190608
118,0,0,0,0,1,1,0,20181212,20190608
119,1,1,1,1,0,0,0,20181212,20190608
120,0,0,0,0,0,0,0,20181212,20190608
121,0,1,0,1,0,0,0,20181212,20190608
122,0,0,0,0,0,0,0,20181212,20190608
123,0,0,0,0,1,0,0,20181212,20190608
124,0,0,0,0,0,0,0,20181212,20190608
125,0,1,1,0,0,0,0,20181212,20190608
126,1,1,1,1,0,0,0,20181212,20190608
127,0,0,0,0,1,0,0,20181212,20190608
128,0,1,1,1,1,0,0,20181212,20190608
129,0,0,0,0,0,0,0,20181212,20190608
130,1,1,1,1,1,1,1,20181212,20190608
131,0,0,0,0,0,0,0,20181212,20190608
132,0,0,0,0,1,1,0,20181212,20190608
133,0,0,0,0,0,1,1,20181212,20190608
134,0,0,0,0,0,0,0,20181212,20190608
135,0,0,0,0,0,0,0,20181212,20190608
136,1,1,1,1,1,1,1,20181212,20190608
137,0,0,0,0,0,0,0,20181212,20190608
138,0,0,0,0,0,0,0,20181212,20190608
139,1,1,1,1,1,0,0,20181212,20190608
140,0,0,0,0,0,1,0,20181212,20190608
141,0,0,0,0,0,1,1,20181212,20190608
142,0,0,0,0,0,1,0,20181212,20190608
143,0,0,0,0,0,0,0,20181212,20190608
144,1,1,1,1,1,0,0,20181212,20190608
145,0,0,0,0,0,1,0,20181212,20190608
146,0,0,0,0,1,1,0,20181212,20190608
147,1,1,1,1,0,0,1,20181212,20190608
148,0,0,0,0,0,1,0,20181212,20190608
149,0,0,0,0,0,0,0,20181212,20190608
150,0,0,0,0,0,0,0,20181212,20190608
151,0,0,0,0,0,0,0,20181212,20190608
152,0,0,0,0,1,1,0,20181212,20190608
153,0,0,0,0,0,0,0,20181212,20190608
154,0,0,0,0,0,0,0,20181212,20190608
155,1,1,1,1,1,1,0,20181212,20190608
156,0,0,0,0,0,0,0,20181212,20190608
157,1,1,1,1,1,0,0,20181212,20190608
158,1,0,1,1,1,0,0,20181212,20190608
159,0,1,0,0,0,0,0,20181212,20190608
160,0,1,1,1,1,1,0,20181212,20190608
161,1,1,1,1,1,1,1,20181212,20190608
162,0,0,0,0,0,1,0,20181212,20190608
163,0,0,0,0,0,1,1,20181212,20190608
164,0,0,0,0,0,1,0,20181212,20190608
165,1,1,1,1,1,0,0,20181212,20190608
166,1,0,1,1,1,0,0,20181212,20190608
167,0,1,0,0,0,0,0,20181212,20190608
168,1,0,0,0,0,0,0,20181212,20190608
169,0,1,1,1,0,0,0,20181212,20190608
170,0,0,0,0,1,0,0,20181212,20190608
171,1,1,1,1,0,1,1,20181212,20190608
172,0,0,0,0,0,1,1,20181212,20190608
173,0,0,0,0,1,0,0,20181212,20190608
174,0,0,0,1,1,0,0,20181212,20190608
175,0,0,0,1,1,0,0,20181212,20190608
176,0,0,1,1,1,0,0,20181212,20190608
177,0,1,0,0,0,0,0,20181212,20190608
178,0,1,0,0,0,1,0,20181212,20190608
179,1,1,1,1,1,1,1,20181212,20190608
180,1,1,1,1,1,0,0,20181212,20190608
181,1,1,1,1,1,1,1,20181212,20190608
182,0,0,0,0,0,0,0,20181212,20190608
183,0,0,0,0,0,0,0,20181212,20190608
184,0,1,1,0,0,0,0,20181212,20190608
185,1,1,1,1,1,1,1,20181212,20190608
186,1,1,1,1,1,1,1,20181212,20190608
187,1,1,1,1,1,1,1,20181212,20190608
188,0,0,0,0,0,0,0,20181212,20190608
189,0,0,0,0,0,0,0,20181212,20190608
190,0,0,0,0,0,0,0,20181212,20190608
191,0,0,0,0,0,0,0,20181212,20190608
192,1,0,0,1,1,1,1,20181212,20190608
193,0,1,1,0,0,0,0,20181212,20190608
194,0,0,0,0,0,1,1,20181212,20190608
195,0,0,0,0,0,0,0,20181212,20190608
196,0,0,1,1,1,1,1,20181212,20190608
197,1,1,0,0,0,0,0,20181212,20190608
198,0,0,0,0,0,0,0,20181212,20190608
199,0,0,0,0,0,1,1,20181212,20190608
200,1,1,1,1,1,0,0,20181212,20190608
201,1,0,0,1,1,1,1,20181212,20190608
202,1,1,1,1,1,1,1,20181212,20190608
203,1,1,1,1,1,1,1,20181212,20190608
204,1,1,1,1,1,1,1,20181212,20190608
205,1,1,1,1,1,1,1,20181212,20190608
206,0,0,0,0,0,0,0,20181212,20190608
207,0,0,0,0,0,0,0,20181212,20190608
208,0,0,0,0,0,0,0,20181212,20190608
209,0,0,0,0,0,0,0,20181212,20190608
210,0,0,0,0,0,0,0,20181212,20190608
211,0,0,0,0,0,0,0,20181212,20190608
212,0,0,0,0,0,0,0,20181212,20190608
213,1,1,1,1,1,0,0,20181212,20190608
214,0,0,0,0,0,1,1,20181212,20190608
215,1,1,1,1,1,1,1,20181212,20190608
216,0,0,0,0,0,0,0,20181212,20190608
217,0,0,0,0,0,0,0,20181212,20190608
218,0,0,0,0,0,0,0,20181212,20190608
219,0,0,0,0,0,1,1,20181212,20190608
220,1,1,1,1,1,1,1,20181212,20190608
221,1,1,1,1,1,1,1,20181212,20190608
222,0,0,0,0,0,0,0,20181212,20190608
223,0,0,0,0,0,0,0,20181212,20190608
224,0,0,0,0,0,0,0,20181212,20190608
225,1,1,1,1,1,1,1,20181212,20190608
226,1,1,1,1,1,0,0,20181212,20190608
227,0,0,0,0,0,0,0,20181212,20190608
228,0,0,0,0,0,0,0,20181212,20190608
229,1,1,1,1,1,1,1,20181212,20190608
230,1,1,1,1,1,1,1,20181212,20190608
231,1,1,1,1,1,1,0,20181212,20190608
232,1,1,1,1,1,1,1,20181212,20190608
233,0,0,0,0,0,1,1,20181212,20190608
234,0,0,0,0,0,0,1,20181212,20190608
235,0,0,0,0,0,0,0,20181212,20190608
236,0,0,0,0,0,0,0,20181212,20190608
237,1,1,1,1,1,1,0,20181212,20190608
238,0,0,0,0,0,0,0,20181212,20190608
239,0,0,0,0,1,0,0,20181212,20190608
240,1,1,1,1,1,0,0,20181212,20190608
241,1,1,1,1,0,0,0,20181212,20190608
242,0,0,0,0,0,0,0,20181212,20190608
243,1,1,1,1,1,0,0,20181212,20190608
244,1,1,1,1,0,0,0,20181212,20190608
245,0,0,0,0,0,0,0,20181212,20190608
246,0,0,0,0,0,1,1,20181212,20190608
247,0,0,0,0,0,1,1,20181212,20190608
248,0,0,0,0,0,0,0,20181212,20190608
249,0,0,0,0,0,0,0,20181212,20190608
250,1,1,1,1,1,1,1,20181212,20190608
251,0,0,0,0,0,1,1,20181212,20190608
252,0,0,0,0,0,1,1,20181212,20190608
253,1,1,1,1,1,1,1,20181212,20190608
254,1,1,1,1,1,1,1,20181212,20190608
255,0,0,0,0,0,0,0,20181212,20190608
256,1,1,1,1,1,1,1,20181212,20190608
257,0,0,0,0,0,0,0,20181212,20190608
258,1,1,1,1,1,1,1,20181212,20190608
259,1,1,1,1,1,1,1,20181212,20190608
260,1,0,0,1,1,0,0,20181212,20190608
261,0,0,0,0,0,1,1,20181212,20190608
262,0,0,0,0,0,0,0,20181212,20190608
263,1,1,1,1,1,0,0,20181212,20190608
264,0,0,0,0,0,0,0,20181212,20190608
265,0,0,0,0,0,0,0,20181212,20190608
266,0,0,0,0,0,0,0,20181212,20190608
267,0,0,0,0,0,0,0,20181212,20190608
268,0,0,0,0,0,0,0,20181212,20190608
269,0,0,0,0,0,0,0,20181212,20190608
270,0,0,0,0,0,0,0,20181212,20190608
271,0,0,0,0,0,1,1,20181212,20190608
272,1,1,1,1,1,1,1,20181212,20190608
273,0,0,0,0,0,1,1,20181212,20190608
274,0,0,0,0,0,0,0,20181212,20190608
275,0,0,0,0,0,1,1,20181212,20190608
276,0,0,0,0,0,0,0,20181212,20190608
277,0,0,0,0,0,0,0,20181212,20190608
278,1,1,1,1,1,1,0,20181212,20190608
279,0,0,0,0,0,0,1,20181212,20190608
280,1,1,1,1,1,1,1,20181212,20190608
281,1,1,1,1,1,1,1,20181212,20190608
282,0,0,0,0,0,0,0,20181212,20190608
283,0,0,1,1,1,1,1,20181212,20190608
284,1,1,0,0,0,0,0,20181212,20190608
285,0,0,0,0,0,0,0,20181212,20190608
286,0,0,0,0,0,1,1,20181212,20190608
287,0,0,0,0,0,0,0,20181212,20190608
288,0,0,0,0,0,0,0,20181212,20190608
289,0,0,0,0,0,1,1,20181212,20190608
290,0,0,0,0,0,1,1,20181212,20190608
291,0,0,0,0,0,1,1,20181212,20190608
292,0,0,0,0,0,0,0,20181212,20190608
293,0,0,0,0,0,0,0,20181212,20190608
294,0,0,0,0,0,0,0,20181212,20190608
295,0,0,0,0,0,0,0,20181212,20190608
296,0,0,0,0,0,0,0,20181212,20190608
297,1,1,1,1,1,0,0,20181212,20190608
298,0,0,0,0,0,1,1,20181212,20190608
299,1,1,1,1,1,0,0,20181212,20190608
300,0,0,0,0,0,1,1,20181212,20190608
301,0,0,0,0,0,0,0,20181212,20190608
302,1,1,1,1,1,1,1,20181212,20190608
303,0,0,0,0,0,1,1,20181212,20190608
304,0,0,0,0,0,1,0,20181212,20190608
305,1,1,1,1,1,1,0,20181212,20190608
306,0,0,0,0,1,0,0,20181212,20190608
307,0,0,0,0,1,1,0,20181212,20190608
308,1,0,0,1,1,1,1,20181212,20190608
309,0,0,0,0,0,0,0,20181212,20190608
310,0,1,1,0,0,0,0,20181212,20190608
311,0,0,0,0,0,0,0,20181212,20190608
312,0,0,1,0,0,0,0,20181212,20190608
313,1,0,0,0,0,0,0,20181212,20190608
314,1,1,1,1,1,0,0,20181212,20190608
315,1,1,1,1,1,0,0,20181212,20190608
316,0,0,0,0,0,0,0,20181212,20190608
317,0,0,0,0,0,0,1,20181212,20190608
318,0,0,1,1,1,0,0,20181212,20190608
319,0,0,0,0,0,0,0,20181212,20190608
320,1,1,1,1,1,1,0,20181212,20190608
321,1,1,0,0,0,0,0,20181212,20190608
322,0,0,0,0,0,0,0,20181212,20190608
323,1,1,1,1,1,0,0,20181212,20190608
324,0,0,0,0,0,1,0,20181212,20190608
325,0,0,0,0,0,0,1,20181212,20190608
326,0,0,0,0,0,0,1,20181212,20190608
327,1,1,1,1,1,0,0,20181212,20190608
328,1,1,1,1,1,1,0,20181212,20190608
329,1,1,1,1,1,1,1,20181212,20190608
330,1,1,1,1,1,1,1,20181212,20190608
331,0,0,0,0,0,0,0,20181212,20190608
332,1,1,1,1,1,1,1,20181212,20190608
333,0,0,0,0,0,0,0,20181212,20190608
334,1,1,1,1,1,1,0,20181212,20190608
335,0,0,0,0,0,0,0,20181212,20190608
336,1,1,1,1,1,1,1,20181212,20190608
337,1,1,1,1,1,1,1,20181212,20190608
338,1,1,1,1,1,1,1,20181212,20190608
339,0,0,0,0,0,0,0,20181212,20190608
340,0,0,0,0,0,0,0,20181212,20190608
341,1,1,1,1,1,1,1,20181212,20190608
342,0,0,0,0,1,1,1,20181212,20190608
343,0,0,0,0,1,0,1,20181212,20190608
344,1,1,1,1,0,0,0,20181212,20190608
345,0,0,0,0,0,0,1,20181212,20190608
346,0,0,0,0,0,0,0,20181212,20190608
347,0,0,0,0,1,0,0,20181212,20190608
348,0,0,0,0,1,1,0,20181212,20190608
349,0,0,0,0,0,0,0,20181212,20190608
350,0,0,0,0,0,0,0,20181212,20190608
351,0,0,0,0,0,0,0,20181212,20190608
352,1,1,1,1,1,0,1,20181212,20190608
353,0,0,0,0,0,0,0,20181212,20190608
354,1,1,1,1,1,0,1,20181212,20190608
355,1,1,1,1,0,0,0,20181212,20190608
356,1,1,1,1,0,1,0,20181212,20190608
357,1,1,1,1,1,0,0,20181212,20190608
358,1,1,1,1,1,1,1,20181212,20190608
359,1,1,1,1,1,1,1,20181212,20190608
360,0,0,0,0,0,0,0,20181212,20190608
361,0,0,0,0,0,0,1,20181212,20190608
362,0,0,0,0,0,0,0,20181212,20190608
363,1,1,1,1,1,1,1,20181212,20190608
364,0,0,0,0,1,0,0,20181212,20190608
365,1,1,1,1,1,1,0,20181212,20190608
366,0,0,0,0,0,1,0,20181212,20190608
367,1,1,1,1,1,1,1,20181212,20190608
368,0,0,0,0,0,0,0,20181212,20190608
369,0,0,0,0,0,0,0,20181212,20190608
370,0,0,0,0,0,0,0,20181212,20190608
371,0,0,0,0,0,0,0,20181212,20190608
372,1,1,1,1,1,0,1,20181212,20190608
373,0,0,0,0,0,0,0,20181212,20190608
374,1,1,1,1,1,1,1,20181212,20190608
375,1,1,1,1,1,1,1,20181212,20190608
376,1,1,1,1,1,0,0,20181212,20190608
377,0,0,0,0,0,0,0,20181212,20190608
378,1,0,1,1,1,0,0,20181212,20190608
379,0,0,0,0,0,0,0,20181212,20190608
380,0,0,0,0,0,0,0,20181212,20190608
381,0,0,1,1,1,0,0,20181212,20190608
382,0,0,0,0,0,0,0,20181212,20190608
383,0,0,0,0,0,0,0,20181212,20190608
384,0,0,0,0,0,0,0,20181212,20190608
385,1,1,1,1,1,0,0,20181212,20190608
386,1,1,1,1,1,1,0,20181212,20190608
387,1,1,1,1,1,0,1,20181212,20190608
388,0,0,0,0,0,1,1,20181212,20190608
389,0,0,0,0,0,0,1,20181212,20190608
390,0,0,0,0,0,1,0,20181212,20190608
391,1,1,1,1,1,1,1,20181212,20190608
392,1,1,1,1,0,0,1,20181212,20190608
393,0,0,0,0,1,1,0,20181212,20190608
394,0,0,0,0,0,0,0,20181212,20190608
395,0,0,0,0,0,0,0,20181212,20190608
396,0,0,0,0,0,1,1,20181212,20190608
397,0,0,0,0,0,1,1,20181212,20190608
398,0,0,0,0,0,0,1,20181212,20190608
399,0,0,0,0,0,0,0,20181212,20190608
400,0,0,0,0,0,1,1,20181212,20190608
401,1,1,1,1,1,0,0,20181212,20190608
402,0,0,0,0,0,1,0,20181212,20190608
403,1,0,0,0,0,1,1,20181212,20190608
404,0,0,0,0,0,1,0,20181212,20190608
405,1,0,0,0,0,0,0,20181212,20190608
406,0,0,0,0,1,0,0,20181212,20190608
407,1,1,1,1,1,1,1,20181212,20190608
408,0,0,0,0,0,0,0,20181212,20190608
409,0,0,0,0,0,0,0,20181212,20190608
410,0,0,0,0,0,0,0,20181212,20190608
411,1,1,1,1,1,1,1,20181212,20190608
412,0,0,0,0,0,0,0,20181212,20190608
413,0,0,0,0,0,1,0,20181212,20190608
414,1,1,1,1,0,1,1,20181212,20190608
415,0,0,0,0,0,0,0,20181212,20190608
416,0,0,0,0,0,0,0,20181212,20190608
417,0,0,0,0,0,0,0,20181212,20190608
418,1,1,1,1,1,1,1,20181212,20190608
419,1,1,1,1,1,1,1,20181212,20190608
420,1,1,1,1,1,1,1,20181212,20190608
421,1,1,1,1,1,1,1,20181212,20190608
422,0,0,0,0,0,1,1,20181212,20190608
423,0,0,0,0,0,0,0,20181212,20190608
424,1,1,1,1,1,1,1,20181212,20190608
425,1,1,1,1,1,1,1,20181212,20190608
426,0,0,0,0,0,0,0,20181212,20190608
427,1,1,1,1,1,1,1,20181212,20190608
428,1,1,1,1,1,1,1,20181212,20190608
429,0,0,0,0,0,0,0,20181212,20190608
430,1,1,1,1,1,1,1,20181212,20190608
431,1,1,1,1,1,1,1,20181212,20190608
432,0,0,0,0,0,0,0,20181212,20190608
433,0,0,0,0,0,1,1,20181212,20190608
434,0,0,0,0,0,1,1,20181212,20190608
435,1,1,1,1,1,0,0,20181212,20190608
436,1,1,1,1,1,0,0,20181212,20190608
437,1,1,1,1,1,0,0,20181212,20190608
438,0,0,0,0,0,0,0,20181212,20190608
439,0,0,0,0,0,0,0,20181212,20190608
440,1,1,1,1,1,0,0,20181212,20190608
441,0,0,0,0,0,1,1,20181212,20190608
442,0,0,0,0,0,0,1,20181212,20190608
443,1,1,1,1,1,1,1,20181212,20190608
444,0,0,0,0,0,0,0,20181212,20190608
445,0,0,0,0,0,0,0,20181212,20190608
446,1,1,1,1,1,1,1,20181212,20190608
447,0,0,0,0,0,0,0,20181212,20190608
448,0,0,0,0,0,0,0,20181212,20190608
449,0,0,0,0,0,0,0,20181212,20190608
450,0,0,0,0,0,0,0,20181212,20190608
451,0,0,0,0,0,1,1,20181212,20190608
452,1,1,1,1,1,1,1,20181212,20190608
453,1,1,1,1,1,1,1,20181212,20190608
454,0,0,0,0,0,1,0,20181212,20190608
455,0,0,0,0,0,0,0,20181212,20190608
456,1,1,1,1,1,0,0,20181212,20190608
457,0,0,0,0,0,0,0,20181212,20190608
458,0,0,0,0,0,0,0,20181212,20190608
459,0,0,0,0,0,0,0,20181212,20190608
460,0,0,0,0,0,0,0,20181212,20190608
461,1,1,1,1,1,1,1,20181212,20190608
462,0,0,0,0,0,0,0,20181212,20190608
463,1,1,1,1,1,0,0,20181212,20190608
464,1,1,1,1,1,1,1,20181212,20190608
465,0,0,0,0,0,0,0,20181212,20190608
466,1,1,1,1,1,1,1,20181212,20190608
467,0,0,0,0,0,0,0,20181212,20190608
468,0,0,0,0,0,0,0,20181212,20190608
469,0,1,0,1,0,0,0,20181212,20190608
470,0,0,0,0,0,0,0,20181212,20190608
471,0,0,0,0,0,0,0,20181212,20190608
472,0,0,0,0,0,0,0,20181212,20190608
473,0,0,1,1,1,1,0,20181212,20190608
474,0,0,0,0,0,0,0,20181212,20190608
475,1,1,1,1,1,1,0,20181212,20190608
476,1,1,1,1,1,0,1,20181212,20190608
477,0,0,0,0,0,1,1,20181212,20190608
478,0,1,0,1,1,0,0,20181212,20190608
479,0,0,0,0,0,1,1,20181212,20190608
480,0,0,0,0,0,0,0,20181212,20190608
481,1,1,1,1,1,0,1,20181212,20190608
482,0,0,0,0,0,0,0,20181212,20190608
483,0,0,0,0,0,0,0,20181212,20190608
484,0,0,0,0,0,0,0,20181212,20190608
485,0,0,0,0,1,0,0,20181212,20190608
486,0,0,0,0,0,0,0,20181212,20190608
487,1,1,1,1,1,1,1,20181212,20190608
488,1,1,1,1,0,0,0,20181212,20190608
489,0,0,0,0,0,1,1,20181212,20190608
490,0,0,0,0,1,0,0,20181212,20190608
491,1,1,1,1,0,1,1,20181212,20190608
492,0,0,0,0,1,0,0,20181212,20190608
493,1,1,1,1,1,1,1,20181212,20190608
494,0,0,0,0,0,0,1,20181212,20190608
495,1,1,1,1,1,1,0,20181212,20190608
496,1,0,0,0,0,0,0,20181212,20190608
497,1,1,1,1,1,1,1,20181212,20190608
498,0,0,0,0,0,0,0,20181212,20190608
499,1,1,1,1,1,1,0,20181212,20190608
500,0,0,0,0,0,0,0,20181212,20190608
501,1,1,1,1,1,0,0,20181212,20190608
502,0,0,0,0,0,0,0,20181212,20190608
503,0,0,0,0,0,0,0,20181212,20190608
504,1,1,1,1,1,0,0,20181212,20190608
505,0,0,0,0,0,0,0,20181212,20190608
506,0,0,0,0,0,0,0,20181212,20190608
507,0,0,0,0,0,0,0,20181212,20190608
508,0,0,0,0,0,0,0,20181212,20190608
509,0,1,1,1,1,0,0,20181212,20190608
510,1,1,1,0,1,0,0,20181212,20190608
511,1,0,0,0,1,0,0,20181212,20190608
512,0,1,1,1,0,0,0,20181212,20190608
513,0,0,0,1,0,0,0,20181212,20190608
514,0,0,0,0,0,0,0,20181212,20190608
515,0,0,0,0,0,0,0,20181212,20190608
516,0,0,0,0,0,0,0,20181212,20190608
517,0,0,0,0,0,0,0,20181212,20190608
518,0,0,0,0,0,0,0,20181212,20190608
519,0,0,1,0,0,0,0,20181212,20190608
520,0,0,0,1,0,0,0,20181212,20190608
521,0,0,0,0,1,0,0,20181212,20190608
522,0,0,0,0,0,0,0,20181212,20190608
523,0,0,0,0,0,0,0,20181212,20190608
524,1,1,1,1,1,0,0,20181212,20190608
525,1,1,1,1,1,0,0,20181212,20190608
526,1,1,1,1,1,1,1,20181212,20190608
527,0,0,0,0,0,1,1,20181212,20190608
528,1,1,1,1,1,0,0,20181212,20190608
529,0,0,0,0,0,0,1,20181212,20190608
530,1,1,1,1,1,0,0,20181212,20190608
531,1,1,1,1,1,0,0,20181212,20190608
532,1,1,0,1,1,0,0,20181212,20190608
533,1,1,1,0,1,0,0,20181212,20190608
534,1,1,1,1,0,1,0,20181212,20190608
535,0,0,0,0,0,1,1,20181212,20190608
536,0,0,0,0,0,0,0,20181212,20190608
537,0,0,0,0,0,0,0,20181212,20190608
538,0,0,0,0,0,0,0,20181212,20190608
539,1,0,0,0,0,0,0,20181212,20190608
540,0,0,0,0,0,0,0,20181212,20190608
541,1,1,1,1,1,0,1,20181212,20190608
542,1,1,1,1,1,0,0,20181212,20190608
543,0,0,0,0,1,1,0,20181212,20190608
544,0,0,0,0,0,0,0,20181212,20190608
545,1,1,1,1,0,0,1,20181212,20190608
546,0,0,0,0,0,0,0,20181212,20190608
547,0,0,0,0,0,0,0,20181212,20190608
548,0,0,0,0,0,0,0,20181212,20190608
549,0,0,0,0,0,0,0,20181212,20190608
550,0,0,0,0,0,0,0,20181212,20190608
551,1,1,1,1,1,0,1,20181212,20190608
552,0,0,0,0,0,0,0,20181212,20190608
553,0,0,0,0,0,1,1,20181212,20190608
554,1,1,1,1,1,0,0,20181212,20190608
555,0,0,0,0,0,1,1,20181212,20190608
556,1,1,1,1,1,1,0,20181212,20190608
557,0,0,0,0,0,0,1,20181212,20190608
558,1,1,1,1,1,0,0,20181212,20190608
559,0,0,0,0,0,1,0,20181212,20190608
560,0,0,0,0,0,0,1,20181212,20190608
561,1,1,1,1,1,1,1,20181212,20190608
562,1,1,1,1,1,1,0,20181212,20190608
563,1,1,1,1,1,0,1,20181212,20190608
564,0,0,0,0,0,1,0,20181212,20190608
565,1,1,1,1,1,0,1,20181212,20190608
566,0,0,0,0,0,1,0,20181212,20190608
567,1,1,1,1,0,1,1,20181212,20190608
568,0,0,0,0,1,0,0,20181212,20190608
569,0,0,0,0,1,0,0,20181212,20190608
570,1,1,1,1,0,1,1,20181212,20190608
571,0,0,0,0,0,1,0,20181212,20190608
572,1,1,1,1,1,0,1,20181212,20190608
573,0,0,0,0,0,1,0,20181212,20190608
574,1,1,1,1,1,1,1,20181212,20190608
575,1,1,1,1,1,1,1,20181212,20190608
576,0,0,0,0,1,1,0,20181212,20190608
577,1,1,1,1,0,0,1,20181212,20190608
578,1,1,1,1,1,1,1,20181212,20190608
579,0,0,0,0,1,1,0,20181212,20190608
580,0,0,0,0,1,1,0,20181212,20190608
581,0,0,0,0,0,0,0,20181212,20190608
582,1,1,1,1,1,0,0,20181212,20190608
583,0,0,0,0,0,0,0,20181212,20190608
584,0,0,0,0,0,0,0,20181212,20190608
585,0,0,0,0,0,0,0,20181212,20190608
586,1,1,1,1,1,0,1,20181212,20190608
587,1,1,1,1,0,0,1,20181212,20190608
588,1,1,1,1,1,0,1,20181212,20190608
589,0,0,0,0,0,1,0,20181212,20190608
590,1,1,1,1,1,1,1,20181212,20190608
591,1,1,1,1,1,1,1,20181212,20190608
592,0,0,0,0,1,1,0,20181212,20190608
593,1,1,1,1,0,0,1,20181212,20190608
594,1,1,1,1,0,0,1,20181212,20190608
595,0,0,0,0,0,1,0,20181212,20190608
596,1,1,1,1,1,0,0,20181212,20190608
597,0,0,0,0,0,0,0,20181212,20190608
598,0,0,0,0,1,1,0,20181212,20190608
599,0,0,0,0,0,0,0,20181212,20190608
600,0,0,0,0,0,1,0,20181212,20190608
601,0,0,0,0,0,0,0,20181212,20190608
602,1,1,1,1,1,1,1,20181212,20190608
603,0,0,1,1,1,1,0,20181212,20190608
604,1,1,1,1,1,1,0,20181212,20190608
605,0,0,0,0,0,0,0,20181212,20190608
606,0,0,0,0,0,0,0,20181212,20190608
607,0,0,0,0,0,0,0,20181212,20190608
608,0,0,0,0,0,0,0,20181212,20190608
609,0,0,0,0,0,0,0,20181212,20190608
610,0,0,0,0,0,0,0,20181212,20190608
611,0,0,0,0,0,0,0,20181212,20190608
612,0,0,0,0,0,0,0,20181212,20190608
613,0,0,0,0,0,0,0,20181212,20190608
614,0,0,0,0,0,0,0,20181212,20190608
615,0,0,0,0,0,0,0,20181212,20190608
616,0,0,0,0,0,0,0,20181212,20190608
617,0,0,0,0,0,0,0,20181212,20190608
618,0,0,0,0,0,0,0,20181212,20190608
619,0,0,0,0,0,0,0,20181212,20190608
620,0,0,0,0,0,0,0,20181212,20190608
621,1,1,1,1,1,1,0,20181212,20190608
622,1,1,1,1,1,1,1,20181212,20190608
623,1,1,1,1,1,1,1,20181212,20190608
624,1,1,1,1,1,1,1,20181212,20190608
625,0,0,0,0,1,1,0,20181212,20190608
626,0,0,0,0,0,0,1,20181212,20190608
627,0,0,0,0,1,1,0,20181212,20190608
628,0,0,0,0,0,0,0,20181212,20190608
629,1,1,1,1,0,0,1,20181212,20190608
630,0,0,0,0,0,0,0,20181212,20190608
631,1,1,1,1,0,0,1,20181212,20190608
632,1,1,1,1,1,1,1,20181212,20190608
633,1,1,1,1,1,0,0,20181212,20190608
634,1,1,1,1,0,0,1,20181212,20190608
635,1,1,1,1,0,0,1,20181212,20190608
636,0,0,0,0,0,0,0,20181212,20190608
637,0,0,0,0,1,1,0,20181212,20190608
638,1,1,1,1,1,1,1,20181212,20190608
639,1,1,1,1,1,1,1,20181212,20190608
640,1,1,1,1,1,1,1,20181212,20190608
641,1,1,1,1,1,1,1,20181212,20190608
642,0,0,0,0,0,0,0,20181212,20190608
643,0,0,0,0,0,1,0,20181212,20190608
644,1,1,1,1,1,0,1,20181212,20190608
645,1,1,1,1,0,0,1,20181212,20190608
646,0,0,0,0,1,1,0,20181212,20190608
647,1,1,1,1,0,0,1,20181212,20190608
648,0,0,0,0,0,1,1,20181212,20190608
649,0,0,0,0,0,1,0,20181212,20190608
650,0,0,0,0,0,0,1,20181212,20190608
651,1,1,1,1,0,0,1,20181212,20190608
652,0,0,0,0,0,0,1,20181212,20190608
653,1,1,1,1,0,0,0,20181212,20190608
654,1,1,1,1,1,1,0,20181212,20190608
655,1,1,1,1,1,1,1,20181212,20190608
656,0,0,0,0,1,1,0,20181212,20190608
657,1,1,1,1,0,0,0,20181212,20190608
658,0,0,0,0,0,0,0,20181212,20190608
659,0,0,0,0,0,0,1,20181212,20190608
660,0,0,0,0,0,0,0,20181212,20190608
661,0,0,0,0,0,0,0,20181212,20190608
662,0,0,0,0,0,0,0,20181212,20190608
663,0,0,0,0,0,0,0,20181212,20190608
664,0,0,0,0,0,0,0,20181212,20190608
665,0,0,0,0,0,0,0,20181212,20190608
666,0,0,0,0,0,0,0,20181212,20190608
667,0,0,0,0,0,0,0,20181212,20190608
668,0,0,0,0,0,0,0,20181212,20190608
669,0,0,0,0,0,0,0,20181212,20190608
670,0,0,0,0,0,0,0,20181212,20190608
671,0,0,0,0,0,0,0,20181212,20190608
672,0,0,0,0,0,0,0,20181212,20190608
673,0,0,0,0,0,0,0,20181212,20190608
674,0,0,0,0,0,0,0,20181212,20190608
675,0,0,0,0,0,0,0,20181212,20190608
676,0,0,0,0,0,0,0,20181212,20190608
677,0,0,0,0,0,0,0,20181212,20190608
678,0,0,0,0,0,0,0,20181212,20190608
679,0,0,0,0,0,0,0,20181212,20190608
680,0,0,0,0,0,0,0,20181212,20190608
681,0,0,0,0,0,0,0,20181212,20190608
682,0,0,0,0,0,0,0,20181212,20190608
683,0,0,0,0,0,0,0,20181212,20190608
684,0,0,0,0,0,0,0,20181212,20190608
685,0,0,0,0,0,1,0,20181212,20190608
686,1,1,1,1,0,0,0,20181212,20190608
687,0,0,0,0,1,0,0,20181212,20190608
688,1,1,1,1,0,0,0,20181212,20190608
689,0,0,0,0,0,0,0,20181212,20190608
690,0,0,0,0,0,0,0,20181212,20190608
691,0,0,0,0,0,0,0,20181212,20190608
692,0,0,0,0,0,0,0,20181212,20190608
693,0,0,0,0,0,0,0,20181212,20190608
694,0,0,0,0,0,0,0,20181212,20190608
695,0,0,0,0,0,0,0,20181212,20190608
696,0,0,0,0,0,0,0,20181212,20190608
697,0,0,0,0,0,0,0,20181212,20190608
698,0,0,0,0,0,0,0,20181212,20190608
699,0,0,0,0,0,0,0,20181212,20190608
700,0,0,0,0,0,1,0,20181212,20190608
701,0,0,0,0,1,0,0,20181212,20190608
702,0,0,0,0,1,0,0,20181212,20190608
703,0,0,0,0,0,1,0,20181212,20190608
704,0,0,0,0,0,1,0,20181212,20190608
705,0,0,0,0,0,0,0,20181212,20190608
706,0,0,0,0,0,0,0,20181212,20190608
707,1,1,1,1,1,0,1,20181212,20190608
708,0,0,0,0,0,0,0,20181212,20190608
709,0,0,0,0,0,0,0,20181212,20190608
710,0,0,0,0,0,0,0,20181212,20190608
711,0,0,0,0,0,0,0,20181212,20190608
712,0,0,0,0,0,0,0,20181212,20190608
713,1,1,1,1,1,0,1,20181212,20190608
714,0,0,0,0,0,1,0,20181212,20190608
715,0,0,0,0,0,0,0,20181212,20190608
716,1,1,1,1,0,0,1,20181212,20190608
717,1,1,1,1,0,0,1,20181212,20190608
718,0,0,0,0,0,1,1,20181212,20190608
719,1,1,1,1,1,1,1,20181212,20190608
720,1,1,1,1,0,0,1,20181212,20190608
721,1,1,1,1,0,0,1,20181212,20190608
722,1,1,1,1,1,1,1,20181212,20190608
723,1,1,1,1,0,0,1,20181212,20190608
724,0,0,0,0,0,0,0,20181212,20190608
725,0,0,0,0,0,0,0,20181212,20190608
726,0,0,0,0,0,0,0,20181212,20190608
727,0,0,0,0,0,0,0,20181212,20190608
728,0,0,0,0,0,0,0,20181212,20190608
729,0,0,0,0,0,0,0,20181212,20190608
730,0,0,0,0,0,0,0,20181212,20190608
731,0,0,0,0,0,0,0,20181212,20190608
732,0,0,0,0,0,0,0,20181212,20190608
733,0,0,0,0,0,0,0,20181212,20190608
734,0,0,0,0,0,0,0,20181212,20190608
735,0,0,0,0,0,0,0,20181212,20190608
736,0,0,0,0,0,0,0,20181212,20190608
737,0,0,0,0,0,0,0,20181212,20190608
738,0,0,0,0,0,0,0,20181212,20190608
739,0,0,0,0,0,0,0,20181212,20190608
740,0,0,0,0,0,0,0,20181212,20190608
741,0,0,0,0,0,0,0,20181212,20190608
742,0,0,0,0,0,0,0,20181212,20190608
743,0,0,0,0,0,0,0,20181212,20190608
744,0,0,0,0,1,1,0,20181212,20190608
745,1,1,1,1,0,0,1,20181212,20190608
746,0,0,0,0,0,0,0,20181212,20190608
747,0,0,0,0,0,0,0,20181212,20190608
748,0,0,0,0,0,0,0,20181212,20190608
749,0,0,0,0,0,0,0,20181212,20190608
750,0,0,0,0,0,0,0,20181212,20190608
751,1,1,1,1,1,0,0,20181212,20190608
752,0,0,0,0,0,0,0,20181212,20190608
753,1,1,1,1,1,0,1,20181212,20190608
754,0,0,0,0,0,0,0,20181212,20190608
755,0,0,0,0,0,0,1,20181212,20190608
756,0,0,0,0,0,0,0,20181212,20190608
757,0,0,0,0,0,0,0,20181212,20190608
758,0,0,0,0,0,0,0,20181212,20190608
759,1,1,1,1,0,0,0,20181212,20190608
760,0,0,0,0,0,0,0,20181212,20190608
761,0,0,0,0,0,0,0,20181212,20190608
762,0,0,0,0,0,0,0,20181212,20190608
763,0,0,0,0,0,0,0,20181212,20190608
764,1,1,1,1,1,0,0,20181212,20190608
765,0,0,0,0,0,0,0,20181212,20190608
766,0,0,0,0,0,0,0,20181212,20190608
767,1,1,1,1,1,0,0,20181212,20190608
768,0,0,0,0,0,0,0,20181212,20190608
769,0,0,0,0,0,0,0,20181212,20190608
770,0,0,0,0,0,0,0,20181212,20190608
771,0,0,0,0,0,0,0,20181212,20190608
772,1,1,1,1,0,1,1,20181212,20190608
773,0,0,0,0,0,0,0,20181212,20190608
774,0,0,0,0,0,0,0,20181212,20190608
775,0,0,0,0,0,0,0,20181212,20190608
776,0,0,0,0,0,0,0,20181212,20190608
777,1,1,1,1,1,0,0,20181212,20190608
778,0,0,0,0,0,0,0,20181212,20190608
779,0,0,0,0,0,0,0,20181212,20190608
780,0,0,0,0,0,0,0,20181212,20190608
781,0,0,0,0,0,0,0,20181212,20190608
782,0,0,0,0,0,0,0,20181212,20190608
783,0,0,0,0,0,0,0,20181212,20190608
784,0,0,0,0,0,0,0,20181212,20190608
785,0,0,0,0,0,0,1,20181212,20190608
786,0,0,0,0,1,0,0,20181212,20190608
787,0,0,0,0,0,1,1,20181212,20190608
788,0,0,0,0,0,1,0,20181212,20190608
789,0,0,0,0,0,1,1,20181212,20190608
790,1,1,1,1,1,0,0,20181212,20190608
791,0,0,0,0,1,1,0,20181212,20190608
792,0,0,0,0,1,1,0,20181212,20190608
793,0,0,0,0,0,0,0,20181212,20190608
794,0,0,0,0,1,0,0,20181212,20190608
795,1,1,1,1,0,0,0,20181212,20190608
796,1,1,1,1,1,0,0,20181212,20190608
797,0,0,0,0,0,0,0,20181212,20190608
798,1,1,1,1,0,0,1,20181212,20190608
799,1,1,1,1,0,0,1,20181212,20190608
800,0,0,0,0,0,0,0,20181212,20190608
801,1,1,1,1,0,0,0,20181212,20190608
802,0,0,0,0,0,0,1,20181212,20190608
803,1,1,1,1,0,0,0,20181212,20190608
804,0,0,0,0,0,1,0,20181212,20190608
805,0,0,0,0,0,0,0,20181212,20190608
806,1,1,1,1,0,0,1,20181212,20190608
807,1,1,1,1,0,0,1,20181212,20190608
808,0,0,0,0,0,0,0,20181212,20190608
809,0,0,0,0,0,0,0,20181212,20190608
810,0,0,0,0,0,0,0,20181212,20190608
811,0,0,0,0,0,0,0,20181212,20190608
812,0,0,0,0,0,0,0,20181212,20190608
813,0,0,0,0,0,0,0,20181212,20190608
814,0,0,0,0,0,0,0,20181212,20190608
815,0,0,0,0,0,1,1,20181212,20190608
816,0,0,0,0,0,0,1,20181212,20190608
817,0,0,0,0,1,1,0,20181212,20190608
818,1,1,1,1,1,0,0,20181212,20190608
819,0,0,0,0,0,0,0,20181212,20190608
820,1,1,1,1,1,1,1,20181212,20190608
821,1,1,1,1,1,1,1,20181212,20190608
822,0,0,0,0,0,1,1,20181212,20190608
823,0,0,0,0,0,0,1,20181212,20190608
824,1,1,1,1,1,0,0,20181212,20190608
825,1,1,1,1,1,1,0,20181212,20190608
826,1,1,1,1,1,0,1,20181212,20190608
827,1,1,1,1,1,1,1,20181212,20190608
828,1,1,1,1,1,0,0,20181212,20190608
829,1,1,1,1,1,1,0,20181212,20190608
830,1,1,1,1,1,1,1,20181212,20190608
831,0,0,0,0,0,0,0,20181212,20190608
832,0,0,0,0,0,0,0,20181212,20190608
833,0,0,0,0,0,0,0,20181212,20190608
834,0,0,0,0,0,0,0,20181212,20190608
835,0,0,0,0,0,0,0,20181212,20190608
836,0,0,0,0,0,0,0,20181212,20190608
837,1,1,1,1,1,1,1,20181212,20190608
838,0,0,0,0,0,0,0,20181212,20190608
839,1,1,1,1,1,1,1,20181212,20190608
840,0,0,0,0,0,0,0,20181212,20190608
841,0,0,0,0,0,0,0,20181212,20190608
842,0,0,0,0,0,0,0,20181212,20190608
843,0,0,0,0,0,0,0,20181212,20190608
844,1,1,1,1,1,1,1,20181212,20190608
845,0,0,0,0,0,0,0,20181212,20190608
846,0,0,0,0,1,0,0,20181212,20190608
847,0,0,0,0,0,1,0,20181212,20190608
848,0,0,0,0,0,1,1,20181212,20190608
849,1,1,1,1,1,1,1,20181212,20190608
850,0,0,0,0,0,1,1,20181212,20190608
851,0,0,0,0,0,1,1,20181212,20190608
852,0,0,0,0,0,0,1,20181212,20190608
853,1,1,1,1,1,0,0,20181212,20190608
854,1,1,1,1,1,0,0,20181212,20190608
855,1,1,1,1,1,0,0,20181212,20190608
856,1,1,1,1,1,0,0,20181212,20190608
857,1,1,1,1,1,0,0,20181212,20190608
858,1,1,1,1,0,0,0,20181212,20190608
859,1,1,1,1,1,1,1,20181212,20190608
860,1,1,1,1,1,1,1,20181212,20190608
861,1,1,1,1,1,1,1,20181212,20190608
862,1,1,1,1,1,1,1,20181212,20190608
863,1,1,1,1,1,1,1,20181212,20190608
864,1,1,1,1,1,1,1,20181212,20190608
865,0,0,0,0,0,0,0,20181212,20190608
866,0,0,0,0,0,0,0,20181212,20190608
867,0,0,0,0,0,0,0,20181212,20190608
868,0,0,0,0,0,0,0,20181212,20190608
869,0,0,0,0,0,0,0,20181212,20190608
870,0,0,0,0,0,0,0,20181212,20190608
871,1,1,1,1,1,1,0,20181212,20190608
872,0,0,0,0,0,0,0,20181212,20190608
873,0,0,0,0,0,0,1,20181212,20190608
874,1,1,1,1,1,1,0,20181212,20190608
875,1,1,1,1,1,0,0,20181212,20190608
876,1,1,1,1,1,1,0,20181212,20190608
877,0,0,0,0,0,0,1,20181212,20190608
878,1,1,1,1,1,1,1,20181212,20190608
879,1,1,0,0,0,0,0,20181212,20190608
880,1,0,0,0,0,0,0,20181212,20190608
881,1,1,0,0,0,0,0,20181212,20190608
882,0,0,0,0,0,0,0,20181212,20190608
883,1,1,1,1,1,1,1,20181212,20190608
884,0,0,0,0,0,0,0,20181212,20190608
885,1,1,1,1,1,1,1,20181212,20190608
886,1,1,1,1,1,1,1,20181212,20190608
887,1,1,1,1,1,1,1,20181212,20190608
888,1,1,1,1,1,1,1,20181212,20190608
889,1,1,1,1,1,1,1,20181212,20190608
890,1,1,1,1,1,1,0,20181212,20190608
891,0,0,0,0,0,0,0,20181212,20190608
892,0,0,0,0,0,1,0,20181212,20190608
893,0,0,0,0,0,0,0,20181212,20190608
894,0,0,0,0,0,0,1,20181212,20190608
895,0,0,0,0,0,0,0,20181212,20190608
896,0,0,0,0,0,0,0,20181212,20190608
897,0,0,0,0,0,0,1,20181212,20190608
898,0,0,0,0,0,0,0,20181212,20190608
899,0,0,0,0,0,0,0,20181212,20190608
900,0,0,0,0,0,0,0,20181212,20190608
901,0,0,0,0,0,0,0,20181212,20190608
902,0,0,0,0,0,0,0,20181212,20190608
903,0,0,0,0,0,0,0,20181212,20190608
904,0,0,0,0,0,0,0,20181212,20190608
905,0,0,0,0,0,0,0,20181212,20190608
906,0,0,0,0,0,0,0,20181212,20190608
907,0,0,0,0,0,0,0,20181212,20190608
908,0,0,0,0,0,0,0,20181212,20190608
909,0,0,0,0,0,0,0,20181212,20190608
910,0,0,0,0,0,0,0,20181212,20190608
911,0,0,0,0,0,1,1,20181212,20190608
912,1,1,1,1,1,0,0,20181212,20190608
913,0,0,0,0,0,1,0,20181212,20190608
914,1,1,0,0,0,0,0,20181212,20190608
915,1,1,1,1,1,1,1,20181212,20190608
916,1,1,1,1,0,0,0,20181212,20190608
917,0,0,0,0,1,1,0,20181212,20190608
918,0,0,0,0,1,1,0,20181212,20190608
919,0,0,0,0,0,0,0,20181212,20190608
920,1,1,1,1,0,0,0,20181212,20190608
921,0,0,0,0,0,0,0,20181212,20190608
922,0,1,1,1,1,0,0,20181212,20190608
923,1,1,1,1,1,1,0,20181212,20190608
924,1,1,1,1,1,1,0,20181212,20190608
925,0,1,1,1,1,1,0,20181212,20190608
926,1,1,0,0,0,0,0,20181212,20190608
927,1,1,1,1,1,1,1,20181212,20190608
928,1,1,1,1,1,1,0,20181212,20190608
929,1,1,1,1,1,1,0,20181212,20190608
930,1,1,1,1,1,1,0,20181212,20190608
931,1,1,1,1,1,1,0,20181212,20190608
932,1,1,1,1,1,1,0,20181212,20190608
933,1,0,1,1,1,1,0,20181212,20190608
934,1,1,1,1,1,1,0,20181212,20190608
935,0,0,0,0,0,0,1,20181212,20190608
936,1,1,1,1,1,1,1,20181212,20190608
937,1,1,1,1,1,1,0,20181212,20190608
938,1,1,1,1,1,0,1,20181212,20190608
939,1,1,1,1,1,0,0,20181212,20190608
940,0,0,0,0,0,0,0,20181212,20190608
941,1,1,1,1,1,0,1,20181212,20190608
942,0,0,0,0,0,1,0,20181212,20190608
943,1,1,1,1,1,1,1,20181212,20190608
944,0,0,0,0,1,1,1,20181212,20190608
945,1,1,1,1,0,0,0,20181212,20190608
946,0,0,0,0,0,1,1,20181212,20190608
947,1,1,1,1,1,0,0,20181212,20190608
948,1,1,1,1,0,1,1,20181212,20190608
949,1,1,1,1,1,1,1,20181212,20190608
950,1,1,1,1,1,0,0,20181212,20190608
951,1,1,1,1,1,0,1,20181212,20190608
952,0,0,0,0,0,1,0,20181212,20190608
953,0,0,0,0,1,1,0,20181212,20190608
954,1,1,1,1,1,0,0,20181212,20190608
955,0,0,0,0,0,1,0,20181212,20190608
956,0,0,0,0,0,0,1,20181212,20190608
957,0,0,0,0,0,0,1,20181212,20190608
958,0,0,0,0,0,1,1,20181212,20190608
959,0,0,0,0,0,0,1,20181212,20190608
960,0,0,0,0,0,1,0,20181212,20190608
961,0,0,0,0,0,1,1,20181212,20190608
962,0,0,0,0,0,1,0,20181212,20190608
963,0,0,0,0,0,1,1,20181212,20190608
964,1,1,1,1,0,1,1,20181212,20190608
965,1,1,1,1,0,0,0,20181212,20190608
966,0,0,0,0,1,1,1,20181212,20190608
967,0,0,0,0,1,1,1,20181212,20190608
968,1,1,1,1,0,0,0,20181212,20190608
969,0,0,0,0,0,0,1,20181212,20190608
970,0,0,0,0,1,1,1,20181212,20190608
971,1,1,1,1,1,1,0,20181212,20190608
972,0,0,0,0,1,1,0,20181212,20190608
973,1,1,1,1,0,0,1,20181212,20190608
974,0,0,0,0,0,1,0,20181212,20190608
975,0,0,0,0,0,1,1,20181212,20190608
976,1,1,1,1,1,1,0,20181212,20190608
977,1,1,1,1,1,1,1,20181212,20190608
978,0,0,0,0,1,1,1,20181212,20190608
979,1,1,1,1,1,1,1,20181212,20190608
980,0,0,0,0,1,1,0,20181212,20190608
981,0,0,0,0,0,0,1,20181212,20190608
982,1,1,1,1,1,0,0,20181212,20190608
983,1,1,1,1,1,0,0,20181212,20190608
984,1,1,1,1,1,1,0,20181212,20190608
985,1,1,1,1,1,1,0,20181212,20190608
986,1,1,1,1,1,1,1,20181212,20190608
987,1,1,1,1,1,1,1,20181212,20190608
988,1,1,1,1,1,1,1,20181212,20190608
989,1,1,1,1,0,0,1,20181212,20190608
990,1,1,1,1,1,0,0,20181212,20190608
991,1,1,1,1,1,0,0,20181212,20190608
992,1,1,1,1,1,1,1,20181212,20190608
993,0,0,0,0,0,0,0,20181212,20190608
994,0,0,0,0,0,0,0,20181212,20190608
995,0,0,0,0,0,0,0,20181212,20190608
996,0,0,0,0,0,0,0,20181212,20190608
997,0,0,0,0,0,0,0,20181212,20190608
998,0,0,0,0,0,0,0,20181212,20190608
999,0,0,0,0,0,0,0,20181212,20190608
1000,0,0,0,0,0,0,0,20181212,20190608
1001,0,0,0,0,0,0,0,20181212,20190608
1002,0,0,0,0,0,0,0,20181212,20190608
1003,0,0,0,0,0,0,0,20181212,20190608
1004,0,0,0,0,0,0,0,20181212,20190608
1005,0,0,0,0,0,0,0,20181212,20190608
1006,0,0,0,0,1,0,0,20181212,20190608
1007,0,0,0,0,0,0,0,20181212,20190608
1008,0,0,0,0,0,0,0,20181212,20190608
1009,0,0,0,0,1,1,0,20181212,20190608
1010,0,0,0,0,0,0,0,20181212,20190608
1011,0,0,0,1,0,0,0,20181212,20190608
1012,0,0,0,0,0,1,1,20181212,20190608
1013,0,0,0,0,0,0,1,20181212,20190608
1014,0,0,0,0,0,1,0,20181212,20190608
1015,0,0,0,0,0,0,0,20181212,20190608
1016,0,0,0,0,0,0,0,20181212,20190608
1017,1,1,1,1,1,1,1,20181212,20190608
1018,0,0,0,0,0,0,0,20181212,20190608
1019,0,0,0,0,0,0,0,20181212,20190608
1020,0,0,0,0,0,0,0,20181212,20190608
1021,0,0,0,0,0,0,0,20181212,20190608
1022,0,0,0,0,0,1,1,20181212,20190608
1023,0,0,0,0,0,1,0,20181212,20190608
1024,1,1,1,1,1,1,0,20181212,20190608
1025,0,0,0,0,0,1,1,20181212,20190608
1026,1,1,1,1,1,0,0,20181212,20190608
1027,0,0,0,0,0,0,0,20181212,20190608
1028,1,1,1,1,1,0,0,20181212,20190608
1029,0,0,0,0,0,0,0,20181212,20190608
1030,1,1,1,1,1,0,0,20181212,20190608
1031,1,1,1,1,1,0,0,20181212,20190608
1032,0,0,0,0,0,1,1,20181212,20190608
1033,0,0,0,0,0,0,0,20181212,20190608
1034,0,0,0,0,0,0,0,20181212,20190608
1035,0,0,0,0,0,1,1,20181212,20190608
1036,0,0,0,0,0,0,0,20181212,20190608
1037,0,0,0,0,0,0,0,20181212,20190608
1038,0,0,0,0,0,0,0,20181212,20190608
1039,1,1,1,1,1,1,1,20181212,20190608
1040,0,0,0,0,0,1,1,20181212,20190608
1041,0,0,0,0,0,0,0,20181212,20190608
1042,0,0,0,0,0,1,0,20181212,20190608
1043,0,0,0,0,0,1,0,20181212,20190608
1044,0,0,0,0,0,1,1,20181212,20190608
1045,0,0,0,0,0,0,0,20181212,20190608
1046,0,0,0,0,0,0,0,20181212,20190608
1047,0,0,0,0,0,0,1,20181212,20190608
1048,0,0,0,0,0,0,1,20181212,20190608
1049,0,0,0,0,0,0,0,20181212,20190608
1050,0,0,0,0,0,1,1,20181212,20190608
1051,0,0,0,0,0,0,1,20181212,20190608
1052,0,0,0,0,0,1,0,20181212,20190608
1053,0,0,0,0,0,1,1,20181212,20190608
1054,0,0,0,0,0,1,0,20181212,20190608
1055,0,0,0,0,0,1,0,20181212,20190608
1056,0,0,0,0,0,1,1,20181212,20190608
1057,1,1,1,1,1,1,1,20181212,20190608
1058,0,0,0,0,0,0,1,20181212,20190608
1059,0,0,0,0,0,1,0,20181212,20190608
1060,0,0,0,0,0,0,1,20181212,20190608
1061,1,1,1,1,1,0,0,20181212,20190608
1062,0,0,0,0,0,0,0,20181212,20190608
1063,0,0,1,1,0,0,0,20181212,20190608
1064,0,0,0,0,0,0,0,20181212,20190608
1065,0,0,0,0,0,0,1,20181212,20190608
1066,0,0,0,0,1,0,0,20181212,20190608
1067,0,0,0,0,0,0,1,20181212,20190608
1068,0,0,0,0,0,0,0,20181212,20190608
1069,0,0,0,0,0,0,0,20181212,20190608
1070,1,1,1,1,1,1,1,20181212,20190608
1071,1,1,1,1,1,1,1,20181212,20190608
1072,0,0,0,0,0,1,1,20181212,20190608
1073,0,0,0,0,1,1,0,20181212,20190608
1074,0,0,0,0,0,0,0,20181212,20190608
1075,1,1,1,1,0,0,1,20181212,20190608
1076,1,1,1,1,1,0,0,20181212,20190608
1077,1,1,1,1,1,0,0,20181212,20190608
1078,0,0,0,0,0,0,0,20181212,20190608
1079,1,1,1,1,0,0,0,20181212,20190608
1080,0,0,0,0,1,0,0,20181212,20190608
1081,0,0,0,0,0,1,1,20181212,20190608
1082,0,0,0,0,0,0,0,20181212,20190608
1083,0,1,0,1,0,0,0,20181212,20190608
1084,0,0,0,0,0,0,0,20181212,20190608
1085,1,0,1,0,1,0,0,20181212,20190608
1086,0,1,0,1,0,0,0,20181212,20190608
1087,1,0,1,0,1,0,0,20181212,20190608
1088,0,0,0,0,0,0,0,20181212,20190608
1089,0,0,0,0,0,0,0,20181212,20190608
1090,1,0,1,1,1,0,0,20181212,20190608
1091,0,1,0,0,0,0,0,20181212,20190608
1092,1,0,1,1,1,0,0,20181212,20190608
1093,0,1,0,1,1,0,0,20181212,20190608
1094,0,0,0,0,0,0,0,20181212,20190608
1095,1,1,1,1,1,0,0,20181212,20190608
1096,1,1,1,1,0,0,0,20181212,20190608
1097,0,0,0,0,0,0,0,20181212,20190608
1098,0,0,0,0,0,0,0,20181212,20190608
1099,1,1,0,1,0,0,0,20181212,20190608
1100,0,0,1,0,1,0,0,20181212,20190608
1101,1,1,1,1,1,0,0,20181212,20190608
1102,0,0,0,0,0,0,0,20181212,20190608
1103,0,0,0,0,0,1,1,20181212,20190608
1104,1,1,1,0,1,0,0,20181212,20190608
1105,0,1,0,1,0,0,0,20181212,20190608
1106,0,0,0,0,0,0,0,20181212,20190608
1107,1,1,0,1,1,0,0,20181212,20190608
1108,0,0,0,0,0,0,0,20181212,20190608
1109,0,0,0,0,1,0,0,20181212,20190608
1110,0,0,0,0,0,0,0,20181212,20190608
1111,0,1,0,1,0,0,0,20181212,20190608
1112,1,0,1,0,1,0,0,20181212,20190608
1113,0,0,0,0,0,0,0,20181212,20190608
1114,1,1,1,1,1,1,1,20181212,20190608
1115,1,1,1,0,0,0,0,20181212,20190608
1116,0,0,0,0,0,1,0,20181212,20190608
1117,0,0,0,0,0,0,1,20181212,20190608
1118,0,0,0,1,1,0,0,20181212,20190608
1119,1,1,1,1,1,0,1,20181212,20190608
1120,1,1,1,0,0,1,1,20181212,20190608
1121,1,1,1,1,1,1,0,20181212,20190608
1122,1,0,1,1,0,0,0,20181212,20190608
1123,1,0,0,0,1,0,0,20181212,20190608
1124,1,0,1,1,1,0,0,20181212,20190608
1125,1,1,1,1,1,1,1,20181212,20190608
1126,0,0,0,0,0,1,1,20181212,20190608
1127,0,1,0,1,1,0,0,20181212,20190608
1128,1,1,1,1,1,0,0,20181212,20190608
1129,0,0,0,0,0,1,1,20181212,20190608
1130,0,0,0,0,0,0,1,20181212,20190608
1131,0,0,0,0,0,1,0,20181212,20190608
1132,0,0,0,0,1,0,0,20181212,20190608
1133,1,1,1,1,0,0,0,20181212,20190608
1134,0,0,0,0,1,1,0,20181212,20190608
1135,1,1,1,1,1,1,1,20181212,20190608
1136,1,1,1,1,0,0,1,20181212,20190608
1137,0,0,0,0,0,0,0,20181212,20190608
1138,0,0,0,0,0,0,0,20181212,20190608
1139,0,0,0,0,0,0,0,20181212,20190608
1140,0,0,0,0,0,0,0,20181212,20190608
1141,0,0,0,0,0,0,0,20181212,20190608
1142,0,0,0,0,0,0,0,20181212,20190608
1143,0,0,0,0,0,0,0,20181212,20190608
1144,0,0,0,0,0,0,0,20181212,20190608
1145,0,0,0,0,0,0,0,20181212,20190608
1146,0,0,0,0,0,0,0,20181212,20190608
1147,0,0,0,0,0,0,0,20181212,20190608
1148,0,0,0,0,0,0,0,20181212,20190608
1149,0,0,0,0,0,0,0,20181212,20190608
1150,1,1,1,1,1,1,0,20181212,20190608
1151,0,0,0,0,0,0,0,20181212,20190608
1152,0,0,0,0,0,0,0,20181212,20190608
1153,0,0,0,0,0,0,0,20181212,20190608
1154,0,0,0,0,0,0,0,20181212,20190608
1155,0,0,0,0,0,0,0,20181212,20190608
1156,1,1,1,1,1,0,0,20181212,20190608
1157,0,0,0,0,0,0,0,20181212,20190608
1158,0,0,0,0,0,0,0,20181212,20190608
1159,0,0,0,0,0,0,0,20181212,20190608
1160,1,1,1,1,1,0,1,20181212,20190608
1161,0,0,0,0,0,0,0,20181212,20190608
1162,1,1,1,1,0,0,0,20181212,20190608
1163,0,0,0,0,1,0,0,20181212,20190608
1164,1,1,1,1,1,0,0,20181212,20190608
1165,0,0,0,0,0,0,0,20181212,20190608
1166,0,0,0,0,0,0,0,20181212,20190608
1167,0,0,0,0,0,0,0,20181212,20190608
1168,0,0,0,0,0,0,0,20181212,20190608
1169,0,0,0,0,0,0,0,20181212,20190608
1170,0,0,0,0,0,0,0,20181212,20190608
1171,0,0,0,0,0,0,0,20181212,20190608
1172,0,0,0,0,0,0,0,20181212,20190608
1173,0,0,0,0,0,0,0,20181212,20190608
1174,0,0,0,0,0,0,0,20181212,20190608
1175,0,0,0,0,0,0,0,20181212,20190608
1176,0,0,0,0,0,0,0,20181212,20190608
1177,0,0,0,0,0,0,0,20181212,20190608
1178,0,0,0,0,0,0,0,20181212,20190608
1179,0,0,0,0,0,0,0,20181212,20190608
1180,1,1,1,1,1,0,0,20181212,20190608
1181,0,0,0,0,1,1,1,20181212,20190608
1182,0,0,0,0,0,0,0,20181212,20190608
1183,0,0,0,0,0,0,0,20181212,20190608
1184,0,0,0,0,0,0,0,20181212,20190608
1185,0,0,0,0,0,0,0,20181212,20190608
1186,0,0,0,0,0,0,0,20181212,20190608
1187,0,0,0,0,0,0,0,20181212,20190608
1188,0,0,0,0,0,0,0,20181212,20190608
1189,0,0,0,0,0,0,0,20181212,20190608
1190,0,0,0,0,0,0,0,20181212,20190608
1191,0,0,0,0,0,0,0,20181212,20190608
1192,0,0,0,0,0,0,0,20181212,20190608
1193,1,1,1,1,0,1,1,20181212,20190608
1194,0,0,0,0,0,0,0,20181212,20190608
1195,0,0,0,0,0,0,0,20181212,20190608
1196,0,0,0,0,0,0,0,20181212,20190608
1197,0,0,0,0,0,0,0,20181212,20190608
1198,0,0,0,0,0,0,0,20181212,20190608
1199,0,0,0,0,0,0,0,20181212,20190608
1200,0,0,0,0,0,0,0,20181212,20190608
1201,0,0,0,0,0,0,0,20181212,20190608
1202,0,0,0,0,0,0,0,20181212,20190608
1203,1,1,1,1,1,0,0,20181212,20190608
1204,0,0,0,0,0,0,0,20181212,20190608
1205,1,1,1,1,1,0,0,20181212,20190608
1206,0,0,0,0,0,0,0,20181212,20190608
1207,0,0,0,0,0,0,1,20181212,20190608
1208,0,0,0,0,0,0,0,20181212,20190608
1209,0,0,0,0,0,0,0,20181212,20190608
1210,0,0,0,0,0,0,0,20181212,20190608
1211,0,0,0,0,0,0,0,20181212,20190608
1212,0,0,0,0,0,0,0,20181212,20190608
1213,0,0,0,0,0,0,0,20181212,20190608
1214,0,0,0,0,0,0,0,20181212,20190608
1215,0,0,0,0,0,0,0,20181212,20190608
1216,0,0,0,0,0,0,0,20181212,20190608
1217,0,0,0,0,0,0,0,20181212,20190608
1218,0,0,0,0,0,0,0,20181212,20190608
1219,0,0,0,0,0,0,0,20181212,20190608
1220,0,0,0,0,0,0,0,20181212,20190608
1221,0,0,0,0,0,0,0,20181212,20190608
1222,0,0,0,0,0,0,0,20181212,20190608
1223,0,0,0,0,0,0,0,20181212,20190608
1224,0,0,0,0,0,0,0,20181212,20190608
1225,0,0,0,0,0,0,0,20181212,20190608
1226,0,0,0,0,0,0,0,20181212,20190608
1227,1,1,1,1,1,1,0,20181212,20190608
1228,0,0,0,0,0,1,0,20181212,20190608
1229,0,0,0,0,0,0,0,20181212,20190608
1230,0,0,0,0,0,0,0,20181212,20190608
1231,0,0,0,0,0,1,0,20181212,20190608
1232,0,0,0,0,0,0,0,20181212,20190608
1233,0,0,0,0,0,0,0,20181212,20190608
1234,0,0,0,0,0,0,0,20181212,20190608
1235,0,0,0,0,0,0,0,20181212,20190608
1236,0,0,0,0,0,0,0,20181212,20190608
1237,0,0,0,0,0,0,0,20181212,20190608
1238,0,0,0,0,0,0,0,20181212,20190608
1239,0,0,0,0,0,0,0,20181212,20190608
1240,0,0,0,0,1,0,0,20181212,20190608
1241,0,0,0,0,0,0,0,20181212,20190608
1242,1,1,1,1,0,1,0,20181212,20190608
1243,0,0,0,0,1,0,1,20181212,20190608
1244,0,0,0,0,0,0,0,20181212,20190608
1245,0,0,0,0,0,0,0,20181212,20190608
1246,0,0,0,0,0,0,0,20181212,20190608
1247,0,0,0,0,0,0,0,20181212,20190608
1248,0,0,0,0,0,0,0,20181212,20190608
1249,0,0,0,0,0,0,0,20181212,20190608
1250,0,0,0,0,0,0,0,20181212,20190608
1251,1,1,0,1,0,0,0,20181212,20190608
1252,0,0,0,0,0,0,0,20181212,20190608
1253,0,0,0,0,0,0,0,20181212,20190608
1254,1,1,1,1,0,0,0,20181212,20190608
1255,0,0,0,0,1,0,0,20181212,20190608
1256,0,0,0,0,0,0,0,20181212,20190608
1257,0,0,0,0,0,0,0,20181212,20190608
1258,0,0,0,0,0,0,0,20181212,20190608
1259,0,0,0,0,0,0,0,20181212,20190608
1260,0,0,0,0,0,0,0,20181212,20190608
1261,0,0,0,0,0,0,0,20181212,20190608
1262,1,1,1,1,1,1,0,20181212,20190608
1263,0,0,0,0,0,0,0,20181212,20190608
1264,1,1,1,1,1,0,0,20181212,20190608
1265,1,1,1,1,1,0,0,20181212,20190608
1266,1,1,1,1,0,1,1,20181212,20190608
1267,0,0,0,0,1,1,1,20181212,20190608
1268,0,0,0,0,0,0,0,20181212,20190608
1269,0,0,0,0,0,0,0,20181212,20190608
1270,0,0,0,0,0,0,0,20181212,20190608
1271,0,0,0,0,0,0,0,20181212,20190608
1272,0,0,0,0,0,0,0,20181212,20190608
1273,0,0,0,0,0,0,0,20181212,20190608
1274,0,0,0,0,0,0,0,20181212,20190608
1275,0,0,0,0,0,0,0,20181212,20190608
1276,0,0,0,0,0,0,0,20181212,20190608
1277,0,0,0,0,0,0,0,20181212,20190608
1278,0,0,0,0,0,0,0,20181212,20190608
1279,0,0,0,0,0,0,0,20181212,20190608
1280,0,0,0,0,0,0,0,20181212,20190608
1281,0,0,0,0,0,0,0,20181212,20190608
1282,0,0,0,0,0,0,0,20181212,20190608
1283,0,0,0,0,0,0,0,20181212,20190608
1284,0,0,0,0,0,0,0,20181212,20190608
1285,0,0,0,0,0,0,0,20181212,20190608
1286,0,0,0,0,0,0,0,20181212,20190608
1287,0,0,0,0,0,0,0,20181212,20190608
1288,0,0,0,0,0,0,0,20181212,20190608
1289,0,0,0,0,0,0,0,20181212,20190608
1290,0,0,0,0,0,0,0,20181212,20190608
1291,0,0,0,0,0,0,0,20181212,20190608
1292,0,0,0,0,0,0,0,20181212,20190608
1293,0,0,0,0,0,0,0,20181212,20190608
1294,0,0,0,0,0,0,0,20181212,20190608
1295,0,0,0,0,0,0,0,20181212,20190608
1296,1,1,1,1,1,1,0,20181212,20190608
1297,0,0,0,0,0,0,0,20181212,20190608
1298,0,0,0,0,0,0,0,20181212,20190608
1299,0,0,0,0,0,0,0,20181212,20190608
1300,0,0,0,0,0,0,0,20181212,20190608
1301,0,0,0,0,0,0,0,20181212,20190608
1302,0,0,0,0,0,0,0,20181212,20190608
1303,0,0,0,0,0,0,0,20181212,20190608
1304,0,0,0,0,0,0,0,20181212,20190608
1305,0,0,0,0,0,0,0,20181212,20190608
1306,0,0,0,0,0,0,0,20181212,20190608
1307,0,0,0,0,0,0,0,20181212,20190608
1308,0,0,0,0,0,0,0,20181212,20190608
1309,0,0,0,0,0,0,0,20181212,20190608
1310,0,0,0,0,0,0,0,20181212,20190608
1311,0,0,0,0,0,0,0,20181212,20190608
1312,0,0,0,0,0,0,0,20181212,20190608
1313,0,0,0,0,0,0,0,20181212,20190608
1314,0,0,0,0,0,0,0,20181212,20190608
1315,0,0,0,0,0,0,0,20181212,20190608
1316,0,0,0,0,0,0,0,20181212,20190608
1317,1,1,1,1,1,0,0,20181212,20190608
1318,1,1,1,1,0,0,1,20181212,20190608
1319,0,0,0,0,0,0,0,20181212,20190608
1320,1,1,1,1,1,0,0,20181212,20190608
1321,0,0,0,0,0,0,0,20181212,20190608
1322,0,0,0,0,0,1,1,20181212,20190608
1323,1,1,1,1,1,1,0,20181212,20190608
1324,0,0,0,0,0,0,0,20181212,20190608
1325,0,0,0,0,0,0,1,20181212,20190608
1326,0,0,0,0,0,1,0,20181212,20190608
1327,0,0,0,0,0,0,0,20181212,20190608
1328,0,0,0,0,0,0,1,20181212,20190608
1329,0,0,0,0,0,1,1,20181212,20190608
1330,0,0,0,0,0,0,0,20181212,20190608
1331,0,0,0,0,0,0,0,20181212,20190608
1332,0,0,0,0,0,0,0,20181212,20190608
1333,0,0,0,0,0,0,0,20181212,20190608
1334,0,0,0,0,0,1,1,20181212,20190608
1335,1,1,1,1,1,0,0,20181212,20190608
1336,0,0,0,0,0,1,1,20181212,20190608
1337,0,0,0,0,0,1,1,20181212,20190608
1338,1,1,1,1,1,1,1,20181212,20190608
1339,1,1,1,1,1,1,1,20181212,20190608
1340,0,0,0,0,0,0,0,20181212,20190608
1341,0,0,0,0,0,0,0,20181212,20190608
1342,0,0,0,0,1,1,0,20181212,20190608
1343,1,1,1,1,0,0,1,20181212,20190608
1344,0,0,0,0,0,0,0,20181212,20190608
1345,0,0,0,0,0,0,0,20181212,20190608
1346,1,1,1,1,1,1,1,20181212,20190608
1347,1,1,1,1,1,1,1,20181212,20190608
1348,1,1,1,1,1,1,1,20181212,20190608
1349,1,1,1,1,0,0,1,20181212,20190608
1350,0,0,0,0,1,1,0,20181212,20190608
1351,0,0,0,0,1,1,0,20181212,20190608
1352,0,0,0,0,1,1,0,20181212,20190608
1353,0,0,0,0,0,0,0,20181212,20190608
1354,1,1,1,1,0,0,1,20181212,20190608
1355,1,1,1,1,1,1,0,20181212,20190608
1356,1,1,1,1,1,1,1,20181212,20190608
1357,1,1,1,1,1,1,1,20181212,20190608
1358,1,1,1,1,1,1,1,20181212,20190608
1359,0,0,0,0,1,1,0,20181212,20190608
1360,1,1,1,1,0,0,1,20181212,20190608
1361,1,1,1,1,0,0,0,20181212,20190608
1362,0,0,0,0,1,0,0,20181212,20190608
1363,0,0,0,0,1,0,0,20181212,20190608
1364,0,0,0,0,0,0,1,20181212,20190608
1365,1,1,1,1,0,0,0,20181212,20190608
1366,1,1,1,1,0,0,0,20181212,20190608
1367,0,0,0,0,1,0,0,20181212,20190608
1368,0,0,0,0,0,1,0,20181212,20190608
1369,0,0,0,0,1,1,0,20181212,20190608
1370,1,1,1,1,1,0,0,20181212,20190608
1371,0,0,0,0,0,0,0,20181212,20190608
1372,0,0,0,0,0,1,0,20181212,20190608
1373,0,0,0,0,0,0,0,20181212,20190608
1374,1,1,1,1,1,0,0,20181212,20190608
1375,0,0,0,0,0,0,0,20181212,20190608
1376,0,0,0,0,0,0,0,20181212,20190608
1377,1,1,1,1,1,1,1,20181212,20190608
1378,1,1,1,1,0,1,1,20181212,20190608
1379,1,1,1,1,1,1,1,20181212,20190608
1380,0,0,0,0,0,1,1,20181212,20190608
1381,0,0,0,0,0,1,1,20181212,20190608
1382,1,1,1,1,1,0,0,20181212,20190608
1383,1,1,1,1,1,1,1,20181212,20190608
1384,0,0,0,0,0,1,1,20181212,20190608
1385,1,1,1,1,1,0,0,20181212,20190608
1386,1,1,1,1,1,1,1,20181212,20190608
1387,1,1,1,1,0,0,0,20181212,20190608
1388,0,0,0,0,1,1,1,20181212,20190608
1389,0,0,0,0,0,0,1,20181212,20190608
1390,0,0,0,0,1,1,0,20181212,20190608
1391,0,0,0,0,1,1,0,20181212,20190608
1392,1,1,1,1,1,1,0,20181212,20190608
1393,1,1,1,1,0,0,1,20181212,20190608
1394,0,0,0,0,0,1,0,20181212,20190608
1395,0,0,0,0,1,1,0,20181212,20190608
1396,0,0,0,0,1,0,0,20181212,20190608
1397,1,1,1,1,1,1,1,20181212,20190608
1398,1,1,1,1,0,1,1,20181212,20190608
1399,1,1,1,1,1,1,0,20181212,20190608
1400,0,0,0,0,1,0,0,20181212,20190608
1401,0,0,0,0,1,0,0,20181212,20190608
1402,1,1,1,1,1,0,0,20181212,20190608
1403,1,1,1,1,0,0,1,20181212,20190608
1404,1,1,1,1,0,0,1,20181212,20190608
1405,1,1,1,1,0,0,1,20181212,20190608
1406,0,0,0,0,1,1,0,20181212,20190608
1407,1,1,1,1,0,1,1,20181212,20190608
1408,0,0,0,0,0,1,1,20181212,20190608
1409,0,0,0,0,1,1,1,20181212,20190608
1410,0,0,0,0,0,0,1,20181212,20190608
1411,1,1,1,1,1,0,1,20181212,20190608
1412,0,0,0,0,1,1,0,20181212,20190608
1413,0,0,0,0,1,1,0,20181212,20190608
1414,1,1,1,1,0,0,1,20181212,20190608
1415,1,1,1,1,0,0,1,20181212,20190608
1416,1,1,1,1,0,0,1,20181212,20190608
1417,1,1,1,1,1,0,0,20181212,20190608
1418,0,0,0,0,0,0,0,20181212,20190608
1419,0,0,0,0,1,1,0,20181212,20190608
1420,1,1,1,1,1,1,1,20181212,20190608
1421,0,0,0,0,1,1,1,20181212,20190608
1422,1,1,1,1,1,0,0,20181212,20190608
1423,1,1,1,1,1,0,0,20181212,20190608
1424,0,0,0,0,0,1,0,20181212,20190608
1425,1,1,1,1,1,0,1,20181212,20190608
1426,0,0,0,0,0,1,1,20181212,20190608
1427,1,1,1,1,1,0,0,20181212,20190608
1428,0,0,0,0,0,1,1,20181212,20190608
1429,1,1,1,1,1,1,1,20181212,20190608
1430,0,0,0,0,1,0,0,20181212,20190608
1431,1,1,1,1,0,1,1,20181212,20190608
1432,1,1,1,1,0,0,1,20181212,20190608
1433,0,0,0,0,0,0,0,20181212,20190608
1434,0,0,0,0,0,1,1,20181212,20190608
1435,0,0,0,0,0,1,0,20181212,20190608
1436,0,0,0,0,0,1,0,20181212,20190608
1437,0,0,0,0,0,0,0,20181212,20190608
1438,0,0,0,0,1,1,0,20181212,20190608
1439,1,1,1,1,1,1,0,20181212,20190608
1440,0,0,0,0,0,0,1,20181212,20190608
1441,0,0,0,0,0,0,0,20181212,20190608
1442,0,0,0,0,0,1,1,20181212,20190608
1443,0,0,0,0,0,0,0,20181212,20190608
1444,0,0,0,0,0,0,0,20181212,20190608
1445,0,0,0,0,0,0,0,20181212,20190608
1446,0,0,0,0,0,0,0,20181212,20190608
1447,0,0,0,0,0,0,0,20181212,20190608
1448,0,0,0,0,0,0,0,20181212,20190608
1449,0,0,0,0,0,0,0,20181212,20190608
1450,0,0,0,0,0,0,0,20181212,20190608
1451,0,0,0,0,0,0,0,20181212,20190608
1452,0,0,0,0,0,0,0,20181212,20190608
1453,0,0,0,0,0,0,0,20181212,20190608
1454,0,0,0,0,0,0,0,20181212,20190608
1455,0,0,0,0,0,0,0,20181212,20190608
1456,0,0,0,0,0,0,0,20181212,20190608
1457,0,0,0,0,0,0,0,20181212,20190608
1458,0,0,0,0,0,0,0,20181212,20190608
1459,0,0,0,0,0,0,0,20181212,20190608
1460,0,0,0,0,0,0,0,20181212,20190608
1461,0,0,0,0,0,0,0,20181212,20190608
1462,0,0,0,0,0,0,0,20181212,20190608
1463,0,0,0,0,0,0,0,20181212,20190608
1464,0,0,0,0,0,0,0,20181212,20190608
1465,0,0,0,0,0,0,0,20181212,20190608
1466,0,0,0,0,0,0,0,20181212,20190608
1467,0,0,0,0,0,0,0,20181212,20190608
1468,0,0,0,0,0,0,0,20181212,20190608
1469,0,0,0,0,0,0,0,20181212,20190608
1470,0,0,0,0,0,0,0,20181212,20190608
1471,0,0,0,0,0,0,0,20181212,20190608
1472,0,0,0,0,0,0,0,20181212,20190608
1473,0,0,0,0,0,0,0,20181212,20190608
1474,0,0,0,0,0,0,0,20181212,20190608
1475,0,0,0,0,0,0,0,20181212,20190608
1476,1,1,1,1,0,0,1,20181212,20190608
1477,0,0,0,0,0,0,1,20181212,20190608
1478,0,0,0,0,1,1,1,20181212,20190608
1479,0,0,0,0,1,1,0,20181212,20190608
1480,1,1,1,1,1,0,0,20181212,20190608
1481,0,0,0,0,0,1,0,20181212,20190608
1482,0,0,0,0,0,0,0,20181212,20190608
1483,0,0,0,0,0,0,1,20181212,20190608
1484,0,0,0,0,0,0,0,20181212,20190608
1485,0,0,0,0,0,0,0,20181212,20190608
1486,0,0,0,0,0,0,0,20181212,20190608
1487,0,0,0,0,0,0,0,20181212,20190608
1488,0,0,0,0,0,0,0,20181212,20190608
1489,0,0,0,0,0,0,0,20181212,20190608
1490,0,0,0,0,0,0,0,20181212,20190608
1491,0,0,0,0,0,0,0,20181212,20190608
1492,0,0,0,0,0,0,0,20181212,20190608
1493,0,0,0,0,0,0,0,20181212,20190608
1494,0,0,0,0,0,0,0,20181212,20190608
1495,0,0,0,0,0,0,0,20181212,20190608
1496,0,0,0,0,0,0,0,20181212,20190608
1497,0,0,0,0,0,0,0,20181212,20190608
1498,0,0,0,0,0,0,0,20181212,20190608
1499,0,0,0,0,0,0,0,20181212,20190608
1500,0,0,0,0,0,0,0,20181212,20190608
1501,0,0,0,0,0,0,0,20181212,20190608
1502,0,0,0,0,0,0,0,20181212,20190608
1503,0,0,0,0,0,0,0,20181212,20190608
1504,0,0,0,0,0,0,0,20181212,20190608
1505,0,0,0,0,0,0,0,20181212,20190608
1506,0,0,0,0,0,0,0,20181212,20190608
1507,0,0,0,0,0,0,0,20181212,20190608
1508,0,0,0,0,0,0,0,20181212,20190608
1509,0,0,0,0,0,0,0,20181212,20190608
1510,0,0,0,0,0,1,1,20181212,20190608
1511,1,1,1,1,1,0,0,20181212,20190608
1512,0,0,0,0,0,0,0,20181212,20190608
1513,1,1,1,1,1,1,0,20181212,20190608
1514,1,1,1,1,1,1,0,20181212,20190608
1515,1,1,1,1,1,1,1,20181212,20190608
1516,1,1,1,1,1,1,1,20181212,20190608
1517,0,0,0,0,0,1,1,20181212,20190608
1518,0,0,0,0,0,1,1,20181212,20190608
1519,0,0,0,0,1,1,1,20181212,20190608
1520,1,1,1,1,0,0,0,20181212,20190608
1521,0,0,0,0,1,1,1,20181212,20190608
1522,0,0,0,0,1,1,1,20181212,20190608
1523,1,1,1,1,0,0,0,20181212,20190608
1524,1,1,1,1,1,0,1,20181212,20190608
1525,0,0,0,0,1,1,0,20181212,20190608
1526,1,1,1,1,1,0,0,20181212,20190608
1527,0,0,0,0,0,1,0,20181212,20190608
1528,0,0,0,0,0,0,0,20181212,20190608
1529,0,0,0,0,0,0,0,20181212,20190608
1530,0,0,0,0,0,0,0,20181212,20190608
1531,0,0,0,0,0,1,0,20181212,20190608
1532,0,0,0,0,0,0,0,20181212,20190608
1533,0,0,0,0,0,0,0,20181212,20190608
1534,1,1,1,1,0,0,1,20181212,20190608
1535,0,0,0,0,0,0,0,20181212,20190608
1536,0,0,0,0,0,0,0,20181212,20190608
1537,0,0,0,0,0,0,0,20181212,20190608
1538,0,0,0,0,0,0,0,20181212,20190608
1539,0,0,0,0,0,0,1,20181212,20190608
1540,1,1,1,1,1,0,0,20181212,20190608
1541,1,1,1,1,1,1,0,20181212,20190608
1542,0,0,0,0,0,0,1,20181212,20190608
1543,1,1,1,1,1,0,0,20181212,20190608
1544,0,0,0,0,1,1,0,20181212,20190608
1545,0,0,0,0,0,0,0,20181212,20190608
1546,1,1,1,1,0,0,0,20181212,20190608
1547,1,1,1,1,0,0,1,20181212,20190608
1548,0,0,0,0,1,1,0,20181212,20190608
1549,0,0,0,0,1,1,0,20181212,20190608
1550,0,0,0,0,0,1,1,20181212,20190608
1551,0,0,0,0,0,1,0,20181212,20190608
1552,0,0,0,0,1,0,0,20181212,20190608
1553,1,1,1,1,1,1,1,20181212,20190608
1554,1,1,1,1,0,0,1,20181212,20190608
1555,1,1,1,1,0,0,1,20181212,20190608
1556,0,0,0,0,0,1,0,20181212,20190608
1557,1,1,1,1,1,0,0,20181212,20190608
1558,0,0,0,0,0,0,0,20181212,20190608
1559,0,0,0,0,0,1,1,20181212,20190608
1560,0,0,0,0,0,0,0,20181212,20190608
1561,1,1,1,1,1,1,1,20181212,20190608
1562,0,0,0,0,0,0,0,20181212,20190608
1563,0,0,0,0,0,0,0,20181212,20190608
1564,0,0,0,0,0,0,1,20181212,20190608
1565,1,1,1,1,1,1,0,20181212,20190608
1566,0,0,0,0,0,0,0,20181212,20190608
1567,1,1,1,1,1,0,1,20181212,20190608
1568,0,0,0,0,0,0,0,20181212,20190608
1569,0,0,0,0,0,1,0,20181212,20190608
1570,0,0,0,0,0,0,0,20181212,20190608
1571,0,0,0,0,0,0,0,20181212,20190608
1572,0,0,0,0,0,0,0,20181212,20190608
1573,1,0,1,1,0,0,0,20181212,20190608
1574,0,0,0,0,0,0,0,20181212,20190608
1575,0,0,0,0,0,0,0,20181212,20190608
1576,0,0,0,1,0,0,0,20181212,20190608
1577,0,0,0,0,0,1,1,20181212,20190608
1578,1,0,1,0,1,1,0,20181212,20190608
1579,1,0,1,0,0,0,0,20181212,20190608
1580,1,1,1,1,1,1,1,20181212,20190608
1581,0,0,0,0,0,0,0,20181212,20190608
1582,1,0,1,0,0,1,1,20181212,20190608
1583,0,0,0,0,0,1,1,20181212,20190608
1584,0,1,0,0,1,0,0,20181212,20190608
1585,0,0,0,0,0,1,1,20181212,20190608
1586,1,0,1,1,0,1,0,20181212,20190608
1587,0,0,0,0,0,0,0,20181212,20190608
1588,0,1,1,0,0,0,0,20181212,20190608
1589,1,0,0,1,1,0,0,20181212,20190608
1590,1,1,1,0,1,1,1,20181212,20190608
1591,0,0,1,1,1,0,0,20181212,20190608
1592,1,1,0,0,0,0,0,20181212,20190608
1593,1,1,1,0,1,0,0,20181212,20190608
1594,0,0,0,1,0,0,0,20181212,20190608
1595,1,1,0,0,1,0,0,20181212,20190608
1596,0,0,0,0,1,0,1,20181212,20190608
1597,0,0,1,1,0,0,0,20181212,20190608
1598,1,1,1,1,0,1,0,20181212,20190608
1599,0,0,0,1,1,0,0,20181212,20190608
1600,1,1,1,0,0,0,0,20181212,20190608
1601,0,0,0,1,1,0,0,20181212,20190608
1602,0,0,0,0,0,0,0,20181212,20190608
1603,0,0,0,0,0,0,0,20181212,20190608
1604,1,1,1,1,0,0,0,20181212,20190608
1605,0,0,0,0,1,1,1,20181212,20190608
1606,1,1,1,1,1,0,1,20181212,20190608
1607,0,0,0,0,0,1,0,20181212,20190608
1608,0,0,0,0,0,1,0,20181212,20190608
1609,0,0,0,0,1,0,0,20181212,20190608
1610,0,0,0,0,0,0,0,20181212,20190608
1611,0,0,0,0,0,0,0,20181212,20190608
1612,1,1,1,1,1,0,0,20181212,20190608
1613,1,1,1,1,1,0,0,20181212,20190608
1614,0,0,0,0,0,0,0,20181212,20190608
1615,1,1,1,1,1,1,1,20181212,20190608
1616,0,0,0,0,0,1,1,20181212,20190608
1617,1,1,1,1,1,1,1,20181212,20190608
1618,0,0,0,0,0,1,1,20181212,20190608
1619,1,1,1,1,1,1,0,20181212,20190608
1620,0,0,0,0,0,0,0,20181212,20190608
1621,0,0,0,0,0,0,0,20181212,20190608
1622,0,0,0,0,0,0,0,20181212,20190608
1623,0,0,0,0,0,0,0,20181212,20190608
1624,0,0,0,0,0,0,0,20181212,20190608
1625,0,0,0,0,0,0,0,20181212,20190608
1626,0,0,0,0,0,1,0,20181212,20190608
1627,0,0,0,0,0,0,0,20181212,20190608
1628,1,1,1,1,1,1,0,20181212,20190608
1629,1,1,1,1,1,1,0,20181212,20190608
1630,1,1,1,1,1,1,1,20181212,20190608
1631,0,0,0,0,0,1,0,20181212,20190608
1632,1,1,1,1,1,0,0,20181212,20190608
1633,0,0,0,0,0,0,0,20181212,20190608
1634,1,1,1,1,1,0,0,20181212,20190608
1635,0,0,0,0,0,1,0,20181212,20190608
1636,0,0,0,0,0,1,0,20181212,20190608
1637,0,0,0,0,0,0,1,20181212,20190608
1638,0,0,0,0,0,0,1,20181212,20190608
1639,1,1,1,1,1,1,0,20181212,20190608
1640,0,0,0,0,0,0,0,20181212,20190608
1641,0,0,0,0,0,0,0,20181212,20190608
1642,0,0,0,0,1,1,0,20181212,20190608
1643,1,1,1,1,1,0,0,20181212,20190608
1644,1,1,1,1,1,1,1,20181212,20190608
1645,0,0,0,0,1,0,0,20181212,20190608
1646,1,1,1,1,1,0,0,20181212,20190608
1647,1,1,1,1,1,0,0,20181212,20190608
1648,0,0,1,1,1,1,1,20181212,20190608
1649,1,1,0,0,0,0,0,20181212,20190608
1650,0,0,0,0,0,0,0,20181212,20190608
1651,1,1,1,1,1,0,0,20181212,20190608
1652,1,1,1,1,1,1,0,20181212,20190608
1653,0,0,0,0,0,0,0,20181212,20190608
1654,0,0,0,0,0,0,0,20181212,20190608
1655,1,1,1,1,1,1,0,20181212,20190608
1656,0,0,0,0,0,0,1,20181212,20190608
1657,0,0,0,0,0,0,0,20181212,20190608
1658,0,0,0,0,0,0,0,20181212,20190608
1659,0,0,0,0,0,0,0,20181212,20190608
1660,0,0,0,0,0,1,0,20181212,20190608
1661,1,1,1,1,1,0,1,20181212,20190608
1662,0,0,0,0,0,0,0,20181212,20190608
1663,0,0,0,0,0,0,0,20181212,20190608
1664,0,0,1,1,1,1,1,20181212,20190608
1665,1,1,0,0,0,0,0,20181212,20190608
1666,0,0,0,0,0,0,0,20181212,20190608
1667,0,0,0,0,0,0,0,20181212,20190608
1668,0,0,0,0,0,0,0,20181212,20190608
1669,0,0,1,1,1,0,0,20181212,20190608
1670,0,0,0,0,0,0,0,20181212,20190608
1671,1,1,1,1,1,1,0,20181212,20190608
1672,1,1,1,1,1,0,1,20181212,20190608
1673,0,0,0,0,0,0,0,20181212,20190608
1674,1,1,1,1,1,0,0,20181212,20190608
1675,0,0,0,0,0,1,1,20181212,20190608
1676,0,0,0,0,0,0,0,20181212,20190608
1677,1,1,1,1,1,1,0,20181212,20190608
1678,1,1,1,1,0,0,1,20181212,20190608
1679,0,0,0,0,0,1,1,20181212,20190608
1680,0,0,1,1,0,0,0,20181212,20190608
1681,1,1,1,1,1,0,0,20181212,20190608
1682,0,0,0,0,0,1,1,20181212,20190608
1683,0,0,0,0,0,0,0,20181212,20190608
1684,1,1,1,1,1,1,1,20181212,20190608
1685,1,1,1,1,1,0,0,20181212,20190608
1686,1,1,1,1,1,1,1,20181212,20190608
1687,1,1,1,1,1,1,1,20181212,20190608
1688,0,0,0,0,0,0,0,20181212,20190608
1689,1,1,1,1,1,0,0,20181212,20190608
1690,1,1,1,1,1,0,0,20181212,20190608
1691,1,1,1,1,1,1,1,20181212,20190608
1692,0,0,0,0,0,0,0,20181212,20190608
1693,0,0,0,0,0,0,0,20181212,20190608
1694,1,1,1,1,1,1,1,20181212,20190608
1695,0,0,0,0,0,1,1,20181212,20190608
1696,1,1,1,1,1,0,0,20181212,20190608
1697,0,0,0,0,1,0,0,20181212,20190608
1698,1,1,1,1,0,0,0,20181212,20190608
1699,1,1,1,1,1,1,1,20181212,20190608
1700,1,1,1,1,1,0,0,20181212,20190608
1701,1,1,1,1,1,1,1,20181212,20190608
1702,1,1,1,1,1,1,1,20181212,20190608
1703,0,0,0,0,0,0,0,20181212,20190608
1704,0,0,0,0,0,0,0,20181212,20190608
1705,0,0,0,0,0,0,0,20181212,20190608
1706,0,0,0,0,0,0,1,20181212,20190608
1707,0,0,0,0,1,1,0,20181212,20190608
1708,1,1,1,1,0,0,1,20181212,20190608
1709,0,0,0,0,1,1,0,20181212,20190608
1710,1,0,0,0,1,0,0,20181212,20190608
1711,0,0,0,0,0,0,0,20181212,20190608
1712,0,0,0,0,0,0,0,20181212,20190608
1713,0,0,0,0,0,0,1,20181212,20190608
1714,1,1,0,1,1,0,0,20181212,20190608
1715,0,1,1,1,1,0,0,20181212,20190608
1716,1,0,0,0,0,0,0,20181212,20190608
1717,1,1,0,1,0,0,0,20181212,20190608
1718,0,0,1,0,1,0,0,20181212,20190608
1719,1,1,0,0,0,0,0,20181212,20190608
1720,0,0,0,1,0,0,0,20181212,20190608
1721,1,1,1,0,1,0,0,20181212,20190608
1722,1,0,0,0,0,0,0,20181212,20190608
1723,0,0,0,0,0,0,0,20181212,20190608
1724,0,0,0,0,0,0,0,20181212,20190608
1725,1,1,1,1,1,0,0,20181212,20190608
1726,1,1,1,1,1,0,0,20181212,20190608
1727,0,0,0,0,0,0,0,20181212,20190608
1728,0,0,0,0,0,0,0,20181212,20190608
1729,0,0,0,0,0,0,0,20181212,20190608
1730,0,0,0,0,0,0,0,20181212,20190608
1731,1,1,1,1,1,0,0,20181212,20190608
1732,1,1,1,1,1,0,0,20181212,20190608
1733,1,1,1,1,1,0,0,20181212,20190608
1734,0,0,0,0,0,0,0,20181212,20190608
1735,0,0,0,0,0,0,0,20181212,20190608
1736,1,1,0,1,1,0,0,20181212,20190608
1737,0,0,0,0,1,0,0,20181212,20190608
1738,1,1,1,1,0,0,0,20181212,20190608
1739,1,0,1,0,1,0,0,20181212,20190608
1740,0,1,0,0,1,0,0,20181212,20190608
1741,1,0,1,1,0,0,0,20181212,20190608
1742,0,1,1,1,0,0,0,20181212,20190608
1743,0,0,1,0,1,0,0,20181212,20190608
1744,1,1,0,1,0,0,0,20181212,20190608
1745,0,0,0,0,0,0,0,20181212,20190608
1746,0,0,0,0,0,0,0,20181212,20190608
1747,1,1,1,1,1,0,0,20181212,20190608
1748,0,0,0,0,0,1,1,20181212,20190608
1749,1,1,1,1,1,1,0,20181212,20190608
1750,1,1,1,1,1,1,1,20181212,20190608
1751,0,0,0,0,0,0,0,20181212,20190608
1752,0,0,0,0,0,0,0,20181212,20190608
1753,0,1,1,1,1,0,0,20181212,20190608
1754,0,0,0,0,0,0,0,20181212,20190608
1755,0,0,1,1,1,0,0,20181212,20190608
1756,0,1,1,1,1,0,0,20181212,20190608
1757,0,0,0,0,0,0,0,20181212,20190608
1758,1,1,1,1,1,0,0,20181212,20190608
1759,1,1,1,1,1,0,0,20181212,20190608
1760,0,0,0,0,0,0,0,20181212,20190608
1761,0,0,0,0,0,0,0,20181212,20190608
1762,1,1,1,1,1,0,0,20181212,20190608
1763,0,0,0,0,0,0,0,20181212,20190608
1764,0,0,0,0,0,0,0,20181212,20190608
1765,0,0,0,0,0,1,1,20181212,20190608
1766,0,0,0,0,0,0,0,20181212,20190608
1767,0,0,0,0,0,0,0,20181212,20190608
1768,0,0,0,0,0,0,0,20181212,20190608
1769,1,1,1,1,0,0,0,20181212,20190608
1770,1,1,1,1,1,0,0,20181212,20190608
1771,1,1,1,1,1,0,0,20181212,20190608
1772,0,0,0,0,0,0,0,20181212,20190608
1773,1,1,1,1,1,0,0,20181212,20190608
1774,1,1,1,1,0,0,0,20181212,20190608
1775,0,0,0,0,1,0,0,20181212,20190608
1776,0,1,0,0,1,0,0,20181212,20190608
1777,0,0,0,0,1,1,0,20181212,20190608
1778,0,0,0,0,0,0,0,20181212,20190608
1779,0,0,0,0,0,0,0,20181212,20190608
