"route_id","agency_id","route_short_name","route_long_name","route_type","route_color","route_text_color","route_desc"
10141_109,1,"S1","",109,"","",""
10142_109,1,"S1","",109,"","",""
10143_109,1,"S2","",109,"","",""
10144_109,1,"S2","",109,"","",""
10145_109,1,"S25","",109,"","",""
10148_109,1,"S3","",109,"","",""
10149_109,1,"S3","",109,"","",""
10154_109,1,"S45","",109,"","",""
10155_109,1,"S46","",109,"","",""
10157_109,1,"S5","",109,"","",""
10158_109,1,"S5","",109,"","",""
10159_109,1,"S5","",109,"","",""
10160_109,1,"S5","",109,"","",""
10162_109,1,"S7","",109,"","",""
10163_109,1,"S7","",109,"","",""
10165_109,1,"S75","",109,"","",""
10166_109,1,"S75","",109,"","",""
10167_109,1,"S8","",109,"","",""
10170_109,1,"S9","",109,"","",""
10223_109,1,"S41","",109,"","",""
10224_109,1,"S41","",109,"","",""
10226_109,1,"S42","",109,"","",""
10227_109,1,"S42","",109,"","",""
10229_109,1,"S47","",109,"","",""
10231_700,1,"S2","",700,"","",""
10272_700,1,"S7","",700,"","",""
10276_109,1,"S1","",109,"","",""
10278_109,1,"S2","",109,"","",""
10371_700,1,"S9","",700,"","",""
11343_700,1,"S8","",700,"","",""
11387_700,1,"S75","",700,"","",""
11536_109,1,"S46","",109,"","",""
11537_109,1,"S46","",109,"","",""
11701_700,1,"S3","",700,"","",""
12003_109,1,"S85","",109,"","",""
17754_700,1,"S3X","",700,"","",""
18949_109,1,"S26","",109,"","",""
18950_109,1,"S3","",109,"","",""
18970_700,1,"S2X","",700,"","",""
5232_3,32,"801","",3,"","",""
5232_700,32,"801","",700,"","",""
5233_3,32,"800","",3,"","",""
5233_700,32,"800","",700,"","",""
5234_3,32,"802","",3,"","",""
5234_700,32,"802","",700,"","",""
5235_3,32,"803","",3,"","",""
5235_700,32,"803","",700,"","",""
5236_3,32,"804","",3,"","",""
5236_700,32,"804","",700,"","",""
5237_3,32,"805","",3,"","",""
5237_700,32,"805","",700,"","",""
5238_700,32,"806","",700,"","",""
5239_700,32,"807","",700,"","",""
5240_700,32,"808","",700,"","",""
5241_700,32,"809","",700,"","",""
5242_700,32,"811","",700,"","",""
5243_3,32,"812","",3,"","",""
5243_700,32,"812","",700,"","",""
5244_3,32,"813","",3,"","",""
5246_3,32,"816","",3,"","",""
5246_700,32,"816","",700,"","",""
5247_700,32,"821","",700,"","",""
5248_3,32,"822","",3,"","",""
5248_700,32,"822","",700,"","",""
5249_700,32,"824","",700,"","",""
5250_3,32,"830","",3,"","",""
5250_700,32,"830","",700,"","",""
5251_3,32,"832","",3,"","",""
5251_700,32,"832","",700,"","",""
5252_3,32,"833","",3,"","",""
5252_700,32,"833","",700,"","",""
5253_3,32,"835","",3,"","",""
5253_700,32,"835","",700,"","",""
5254_3,32,"836","",3,"","",""
5254_700,32,"836","",700,"","",""
5255_3,32,"837","",3,"","",""
5255_700,32,"837","",700,"","",""
5256_3,32,"838","",3,"","",""
5256_700,32,"838","",700,"","",""
5257_3,32,"839","",3,"","",""
5257_700,32,"839","",700,"","",""
5258_3,32,"841","",3,"","",""
5258_700,32,"841","",700,"","",""
5259_3,32,"842","",3,"","",""
5259_700,32,"842","",700,"","",""
5260_3,32,"843","",3,"","",""
5260_700,32,"843","",700,"","",""
5262_3,32,"845","",3,"","",""
5262_700,32,"845","",700,"","",""
5263_3,32,"846","",3,"","",""
5263_700,32,"846","",700,"","",""
5264_3,32,"847","",3,"","",""
5264_700,32,"847","",700,"","",""
5265_700,32,"850","",700,"","",""
5266_3,32,"851","",3,"","",""
5266_700,32,"851","",700,"","",""
5268_700,32,"854","",700,"","",""
5269_3,32,"857","",3,"","",""
5269_700,32,"857","",700,"","",""
13543_3,32,"831","",3,"","",""
13543_700,32,"831","",700,"","",""
14753_700,32,"810","",700,"","",""
14754_700,32,"814","",700,"","",""
14755_3,32,"834","",3,"","",""
14755_700,32,"834","",700,"","",""
15068_3,32,"848","",3,"","",""
327_700,47,"B/522","",700,"","",""
328_700,47,"C/523","",700,"","",""
329_700,47,"D/524","",700,"","",""
330_700,47,"E/525","",700,"","",""
331_700,47,"F/526","",700,"","",""
333_700,47,"H/528","",700,"","",""
335_700,47,"W/540","",700,"","",""
336_700,47,"N1","",700,"","",""
337_700,47,"N2","",700,"","",""
340_900,47,"1","",900,"","",""
341_900,47,"2","",900,"","",""
343_900,47,"6","",900,"","",""
5606_700,47,"K/529","",700,"","",""
5607_700,47,"N4","",700,"","",""
15260_700,47,"L/530","",700,"","",""
16589_900,47,"12","",900,"","",""
17659_700,47,"P/533","",700,"","",""
17063_700,781,"559","",700,"","",""
17064_700,781,"593","",700,"","",""
17065_700,781,"596","",700,"","",""
17554_700,606,"549","",700,"","",""
18324_700,476,"548","",700,"","",""
18325_700,476,"550","",700,"","",""
18326_700,476,"554","",700,"","",""
18327_700,476,"566","",700,"","",""
18328_700,476,"567","",700,"","",""
18329_700,476,"568","",700,"","",""
18469_700,480,"591","",700,"","",""
18470_700,480,"592","",700,"","",""
18471_700,706,"546","",700,"","",""
18819_700,476,"556","",700,"","",""
18884_700,846,"551","",700,"","",""
18885_700,846,"552","",700,"","",""
18886_700,846,"553","",700,"","",""
18887_3,846,"555","",3,"","",""
18887_700,846,"555","",700,"","",""
18888_700,846,"558","",700,"","",""
18889_700,846,"560","",700,"","",""
18890_700,846,"561","",700,"","",""
18891_700,846,"562","",700,"","",""
18892_700,846,"563","",700,"","",""
18893_700,846,"564","",700,"","",""
18894_700,846,"565","",700,"","",""
18895_700,846,"569","",700,"","",""
18896_700,846,"571","",700,"","",""
18897_700,846,"572","",700,"","",""
18898_700,846,"580","",700,"","",""
18899_700,846,"581","",700,"","",""
18900_700,846,"582","",700,"","",""
18901_700,846,"583","",700,"","",""
18902_700,846,"584","",700,"","",""
18903_700,846,"585","",700,"","",""
18904_3,846,"586","",3,"","",""
18904_700,846,"586","",700,"","",""
18905_700,846,"587","",700,"","",""
18906_700,846,"588","",700,"","",""
18907_700,846,"589","",700,"","",""
18908_700,846,"590","",700,"","",""
18909_700,846,"601","",700,"","",""
18910_700,846,"602","",700,"","",""
18911_3,846,"607","",3,"","",""
18911_700,846,"607","",700,"","",""
18913_3,846,"608","",3,"","",""
18913_700,846,"608","",700,"","",""
18914_3,846,"610","",3,"","",""
18914_700,846,"610","",700,"","",""
18915_3,846,"611","",3,"","",""
18915_700,846,"611","",700,"","",""
18916_700,846,"612","",700,"","",""
18917_700,846,"613","",700,"","",""
18918_700,846,"615","",700,"","",""
18919_700,846,"619","",700,"","",""
18920_700,846,"620","",700,"","",""
18921_3,846,"621","",3,"","",""
18921_700,846,"621","",700,"","",""
18922_700,846,"622","",700,"","",""
18923_700,846,"623","",700,"","",""
18924_3,846,"624","",3,"","",""
18924_700,846,"624","",700,"","",""
18925_3,846,"625","",3,"","",""
18925_700,846,"625","",700,"","",""
18926_3,846,"626","",3,"","",""
18926_700,846,"626","",700,"","",""
18927_3,846,"627","",3,"","",""
18927_700,846,"627","",700,"","",""
18928_3,846,"628","",3,"","",""
18928_700,846,"628","",700,"","",""
18929_700,846,"629","",700,"","",""
18930_700,846,"630","",700,"","",""
18931_700,846,"631","",700,"","",""
18932_700,846,"632","",700,"","",""
18933_3,846,"633","",3,"","",""
18933_700,846,"633","",700,"","",""
18934_700,846,"634","",700,"","",""
18935_700,846,"635","",700,"","",""
18936_700,846,"642","",700,"","",""
18937_700,846,"643","",700,"","",""
18938_3,846,"644","",3,"","",""
18938_700,846,"644","",700,"","",""
18939_3,846,"645","",3,"","",""
18939_700,846,"645","",700,"","",""
18940_700,846,"646","",700,"","",""
18941_700,846,"647","",700,"","",""
18942_700,846,"N12","",700,"","",""
18943_700,846,"N13","",700,"","",""
18945_700,846,"X1","",700,"","",""
19211_700,846,"X43","",700,"","",""
1920_700,92,"650","",700,"","",""
1921_3,92,"651","",3,"","",""
1921_700,92,"651","",700,"","",""
1922_3,92,"652","",3,"","",""
1922_700,92,"652","",700,"","",""
1923_700,92,"653","",700,"","",""
1924_700,92,"654","",700,"","",""
1925_700,92,"655","",700,"","",""
1926_700,92,"656","",700,"","",""
1928_700,92,"658","",700,"","",""
1929_700,92,"659","",700,"","",""
1930_700,92,"661","",700,"","",""
1931_700,92,"662","",700,"","",""
1933_700,92,"664","",700,"","",""
1934_700,92,"665","",700,"","",""
1935_700,92,"666","",700,"","",""
1936_700,92,"667","",700,"","",""
1938_3,92,"671","",3,"","",""
1938_700,92,"671","",700,"","",""
1939_700,92,"680","",700,"","",""
1945_3,92,"604","",3,"","",""
1945_700,92,"604","",700,"","",""
1955_700,92,"614","",700,"","",""
3713_700,92,"649","",700,"","",""
3975_700,92,"660","",700,"","",""
4477_700,92,"663","",700,"","",""
10296_3,92,"657","",3,"","",""
10296_700,92,"657","",700,"","",""
10671_700,92,"668","",700,"","",""
10672_700,92,"672","",700,"","",""
10673_700,92,"673","",700,"","",""
10674_700,92,"674","",700,"","",""
10675_700,92,"675","",700,"","",""
10676_700,92,"676","",700,"","",""
10677_700,92,"677","",700,"","",""
10678_700,92,"678","",700,"","",""
10679_700,92,"679","",700,"","",""
10682_3,92,"684","",3,"","",""
10682_700,92,"684","",700,"","",""
10683_700,92,"685","",700,"","",""
10684_700,92,"687","",700,"","",""
10685_3,92,"688","",3,"","",""
10685_700,92,"688","",700,"","",""
10686_700,92,"689","",700,"","",""
13418_700,92,"669","",700,"","",""
16709_3,92,"670","",3,"","",""
16733_700,92,"681","",700,"","",""
16734_700,92,"682","",700,"","",""
16735_700,92,"683","",700,"","",""
17694_3,92,"338","",3,"","",""
17694_700,92,"338","",700,"","",""
18804_3,92,"648","",3,"","",""
18804_700,92,"648","",700,"","",""
19031_100,108,"RB66","",100,"","",""
19032_100,108,"RB91","",100,"","",""
19033_100,108,"RB93","",100,"","",""
19035_100,108,"RE66","",100,"","",""
19037_100,108,"RB10","",100,"","",""
19038_100,108,"RB11","",100,"","",""
19039_100,108,"RB13","",100,"","",""
19040_100,108,"RB14","",100,"","",""
19041_100,108,"RB20","",100,"","",""
19042_100,108,"RB21","",100,"","",""
19043_100,108,"RB22","",100,"","",""
19044_100,108,"RB23","",100,"","",""
19045_100,108,"RB24","",100,"","",""
19046_100,108,"RE1","",100,"","",""
19048_100,108,"RE5","",100,"","",""
19049_100,108,"RE7","",100,"","",""
19055_100,108,"RB43","",100,"","",""
19056_100,108,"RE10","",100,"","",""
19058_100,108,"RE3","",100,"","",""
19059_100,108,"RE5","",100,"","",""
19060_100,108,"RB31","",100,"","",""
19061_100,108,"RB49","",100,"","",""
19062_100,108,"RE15","",100,"","",""
19063_100,108,"RE18","",100,"","",""
19065_100,108,"RB55","",100,"","",""
19066_100,108,"RE6","",100,"","",""
19155_109,108,"S4","",109,"","",""
19156_109,108,"S1","",109,"","",""
19157_100,108,"RB51","",100,"","",""
19158_100,108,"RE3","",100,"","",""
19159_109,108,"S2","",109,"","",""
19253_100,108,"RE4","",100,"","",""
19681_100,108,"RE14","",100,"","",""
19683_100,108,"RB93","",100,"","",""
19684_100,108,"RB91","",100,"","",""
19685_100,108,"RB24","",100,"","",""
19686_100,108,"RB23","",100,"","",""
19688_100,108,"RB1","",100,"","",""
19701_700,108,"RE15","",700,"","",""
19702_700,108,"RE10","",700,"","",""
19705_700,108,"RE7","",700,"","",""
19706_700,108,"RE6","",700,"","",""
19708_700,108,"RE3","",700,"","",""
19709_700,108,"RE1","",700,"","",""
19713_700,108,"RB55","",700,"","",""
19715_700,108,"RB43","",700,"","",""
19717_700,108,"RB24","",700,"","",""
19722_700,108,"RB14","",700,"","",""
19723_700,108,"RB11","",700,"","",""
19909_100,108,"RE5","",100,"","",""
1870_700,84,"980","",700,"","",""
1871_700,84,"981","",700,"","",""
1872_700,84,"982","",700,"","",""
1874_700,84,"984","",700,"","",""
1876_700,84,"986","",700,"","",""
1877_700,84,"987","",700,"","",""
1878_700,84,"988","",700,"","",""
1879_900,84,"1","",900,"","",""
1880_900,84,"2","",900,"","",""
1881_900,84,"3","",900,"","",""
1882_900,84,"4","",900,"","",""
1883_900,84,"5","",900,"","",""
12193_700,84,"N1","",700,"","",""
12194_700,84,"N2","",700,"","",""
13803_700,84,"EV4","",700,"","",""
16214_700,84,"983","",700,"","",""
4491_700,246,"621","",700,"","",""
4492_700,246,"700","",700,"","",""
4493_700,246,"701","",700,"","",""
4495_3,246,"702","",3,"","",""
4495_700,246,"702","",700,"","",""
4496_700,246,"703","",700,"","",""
4497_700,246,"704","",700,"","",""
4498_700,246,"705","",700,"","",""
4499_700,246,"706","",700,"","",""
4501_700,246,"707","",700,"","",""
4502_3,246,"708","",3,"","",""
4502_700,246,"708","",700,"","",""
4503_3,246,"710","",3,"","",""
4503_700,246,"710","",700,"","",""
4504_700,246,"712","",700,"","",""
4505_3,246,"713","",3,"","",""
4505_700,246,"713","",700,"","",""
4507_700,246,"716","",700,"","",""
4508_700,246,"717","",700,"","",""
4509_700,246,"718","",700,"","",""
4511_700,246,"719","",700,"","",""
4512_700,246,"720","",700,"","",""
4514_700,246,"750","",700,"","",""
4515_700,246,"757","",700,"","",""
4516_3,246,"759","",3,"","",""
4516_700,246,"759","",700,"","",""
4517_3,246,"763","",3,"","",""
4517_700,246,"763","",700,"","",""
4518_3,246,"764","",3,"","",""
4518_700,246,"764","",700,"","",""
4519_3,246,"765","",3,"","",""
4519_700,246,"765","",700,"","",""
4520_700,246,"770","",700,"","",""
4521_3,246,"772","",3,"","",""
4521_700,246,"772","",700,"","",""
5270_3,246,"761","",3,"","",""
5270_700,246,"761","",700,"","",""
6617_700,246,"751","",700,"","",""
6618_700,246,"753","",700,"","",""
6620_3,246,"754","",3,"","",""
6620_700,246,"754","",700,"","",""
6621_3,246,"756","",3,"","",""
6621_700,246,"756","",700,"","",""
6622_3,246,"758","",3,"","",""
6622_700,246,"758","",700,"","",""
6624_700,246,"766","",700,"","",""
6625_700,246,"768","",700,"","",""
6626_700,246,"769","",700,"","",""
6629_700,246,"771","",700,"","",""
9696_3,246,"711","",3,"","",""
9696_700,246,"711","",700,"","",""
10911_3,246,"709","",3,"","",""
10911_700,246,"709","",700,"","",""
10912_700,246,"752","",700,"","",""
10913_700,246,"755","",700,"","",""
10914_3,246,"773","",3,"","",""
10914_700,246,"773","",700,"","",""
12043_700,246,"760","",700,"","",""
13728_700,246,"793","",700,"","",""
13729_700,246,"794","",700,"","",""
13730_700,246,"797","",700,"","",""
13888_700,246,"789","",700,"","",""
13889_700,246,"792","",700,"","",""
15710_700,246,"790","",700,"","",""
15711_700,246,"791","",700,"","",""
15712_700,246,"795","",700,"","",""
15713_700,246,"796","",700,"","",""
16354_700,246,"600","",700,"","",""
16774_3,246,"774","",3,"","",""
16774_700,246,"774","",700,"","",""
17959_700,246,"619","",700,"","",""
18499_700,246,"775","",700,"","",""
19079_3,246,"715","",3,"","",""
19079_700,246,"715","",700,"","",""
17279_700,796,"12","",700,"","",""
17280_700,796,"21","",700,"","",""
17283_700,796,"60","",700,"","",""
17289_700,796,"100","",700,"","",""
17290_700,796,"101","",700,"","",""
17291_700,796,"104","",700,"","",""
17292_700,796,"106","",700,"","",""
17293_700,796,"107","",700,"","",""
17294_700,796,"108","",700,"","",""
17295_700,796,"109","",700,"","",""
17296_700,796,"110","",700,"","",""
17297_700,796,"112","",700,"","",""
17298_700,796,"114","",700,"","",""
17299_700,796,"115","",700,"","",""
17300_700,796,"118","",700,"","",""
17301_900,796,"12","",900,"","",""
17302_700,796,"120","",700,"","",""
17303_700,796,"122","",700,"","",""
17304_700,796,"123","",700,"","",""
17305_700,796,"124","",700,"","",""
17306_700,796,"125","",700,"","",""
17307_700,796,"128","",700,"","",""
17308_700,796,"130","",700,"","",""
17309_700,796,"131","",700,"","",""
17310_700,796,"133","",700,"","",""
17311_700,796,"134","",700,"","",""
17312_700,796,"135","",700,"","",""
17313_700,796,"136","",700,"","",""
17314_700,796,"137","",700,"","",""
17315_700,796,"139","",700,"","",""
17316_700,796,"140","",700,"","",""
17317_700,796,"142","",700,"","",""
17318_700,796,"147","",700,"","",""
17319_700,796,"150","",700,"","",""
17320_700,796,"154","",700,"","",""
17321_700,796,"155","",700,"","",""
17322_700,796,"156","",700,"","",""
17323_700,796,"158","",700,"","",""
17324_900,796,"16","",900,"","",""
17325_700,796,"160","",700,"","",""
17326_700,796,"161","",700,"","",""
17327_700,796,"162","",700,"","",""
17328_700,796,"163","",700,"","",""
17329_700,796,"164","",700,"","",""
17330_700,796,"165","",700,"","",""
17331_700,796,"166","",700,"","",""
17332_700,796,"168","",700,"","",""
17333_700,796,"170","",700,"","",""
17334_700,796,"171","",700,"","",""
17335_700,796,"172","",700,"","",""
17336_700,796,"175","",700,"","",""
17337_700,796,"179","",700,"","",""
17338_900,796,"18","",900,"","",""
17339_700,796,"181","",700,"","",""
17340_700,796,"184","",700,"","",""
17341_700,796,"186","",700,"","",""
17342_700,796,"187","",700,"","",""
17343_700,796,"188","",700,"","",""
17344_700,796,"190","",700,"","",""
17345_700,796,"191","",700,"","",""
17346_700,796,"192","",700,"","",""
17347_700,796,"194","",700,"","",""
17348_700,796,"195","",700,"","",""
17349_700,796,"197","",700,"","",""
17350_700,796,"200","",700,"","",""
17351_700,796,"204","",700,"","",""
17352_900,796,"21","",900,"","",""
17353_700,796,"218","",700,"","",""
17354_700,796,"220","",700,"","",""
17355_700,796,"221","",700,"","",""
17356_700,796,"222","",700,"","",""
17357_700,796,"234","",700,"","",""
17358_700,796,"236","",700,"","",""
17359_700,796,"237","",700,"","",""
17360_700,796,"240","",700,"","",""
17361_700,796,"245","",700,"","",""
17362_700,796,"246","",700,"","",""
17363_700,796,"247","",700,"","",""
17364_700,796,"248","",700,"","",""
17365_700,796,"249","",700,"","",""
17366_700,796,"250","",700,"","",""
17367_700,796,"255","",700,"","",""
17368_700,796,"256","",700,"","",""
17369_700,796,"259","",700,"","",""
17370_700,796,"260","",700,"","",""
17371_700,796,"263","",700,"","",""
17372_700,796,"265","",700,"","",""
17373_700,796,"269","",700,"","",""
17374_900,796,"27","",900,"","",""
17375_700,796,"271","",700,"","",""
17376_700,796,"275","",700,"","",""
17377_700,796,"277","",700,"","",""
17378_700,796,"282","",700,"","",""
17379_700,796,"283","",700,"","",""
17380_700,796,"284","",700,"","",""
17381_700,796,"285","",700,"","",""
17382_700,796,"291","",700,"","",""
17383_700,796,"294","",700,"","",""
17384_700,796,"296","",700,"","",""
17385_700,796,"309","",700,"","",""
17386_700,796,"312","",700,"","",""
17387_700,796,"316","",700,"","",""
17388_700,796,"318","",700,"","",""
17389_700,796,"320","",700,"","",""
17390_700,796,"322","",700,"","",""
17391_700,796,"324","",700,"","",""
17392_700,796,"326","",700,"","",""
17393_700,796,"327","",700,"","",""
17394_700,796,"334","",700,"","",""
17395_700,796,"337","",700,"","",""
17396_700,796,"341","",700,"","",""
17398_700,796,"347","",700,"","",""
17399_700,796,"349","",700,"","",""
17400_700,796,"350","",700,"","",""
17401_700,796,"353","",700,"","",""
17402_700,796,"363","",700,"","",""
17403_700,796,"369","",700,"","",""
17404_900,796,"37","",900,"","",""
17405_700,796,"370","",700,"","",""
17406_700,796,"371","",700,"","",""
17407_700,796,"372","",700,"","",""
17408_700,796,"373","",700,"","",""
17409_700,796,"377","",700,"","",""
17410_700,796,"380","",700,"","",""
17411_700,796,"390","",700,"","",""
17412_700,796,"395","",700,"","",""
17413_700,796,"396","",700,"","",""
17414_700,796,"398","",700,"","",""
17415_700,796,"399","",700,"","",""
17416_900,796,"50","",900,"","",""
17417_900,796,"60","",900,"","",""
17418_900,796,"61","",900,"","",""
17419_900,796,"62","",900,"","",""
17420_900,796,"63","",900,"","",""
17421_900,796,"67","",900,"","",""
17422_900,796,"68","",900,"","",""
17426_900,796,"21","",900,"","",""
17429_1000,796,"F10","",1000,"","",""
17430_1000,796,"F11","",1000,"","",""
17431_1000,796,"F12","",1000,"","",""
17432_1000,796,"F21","",1000,"","",""
17433_1000,796,"F23","",1000,"","",""
17434_1000,796,"F24","",1000,"","",""
17435_700,796,"M1","",700,"","",""
17438_900,796,"M1","",900,"","",""
17439_700,796,"M10","",700,"","",""
17440_900,796,"M10","",900,"","",""
17441_700,796,"M11","",700,"","",""
17442_900,796,"M13","",900,"","",""
17444_900,796,"M17","",900,"","",""
17445_700,796,"M19","",700,"","",""
17446_900,796,"M2","",900,"","",""
17447_700,796,"M21","",700,"","",""
17448_700,796,"M27","",700,"","",""
17449_700,796,"M29","",700,"","",""
17450_700,796,"M32","",700,"","",""
17451_700,796,"M37","",700,"","",""
17452_900,796,"M4","",900,"","",""
17453_700,796,"M41","",700,"","",""
17454_700,796,"M44","",700,"","",""
17455_700,796,"M45","",700,"","",""
17456_700,796,"M46","",700,"","",""
17457_700,796,"M48","",700,"","",""
17458_700,796,"M49","",700,"","",""
17459_900,796,"M5","",900,"","",""
17460_900,796,"M6","",900,"","",""
17461_700,796,"M76","",700,"","",""
17462_700,796,"M77","",700,"","",""
17463_900,796,"M8","",900,"","",""
17464_700,796,"M82","",700,"","",""
17465_700,796,"M85","",700,"","",""
17466_700,796,"N1","",700,"","",""
17467_700,796,"N2","",700,"","",""
17468_700,796,"N3","",700,"","",""
17469_700,796,"N5","",700,"","",""
17470_700,796,"N6","",700,"","",""
17471_700,796,"N7","",700,"","",""
17472_700,796,"N8","",700,"","",""
17473_700,796,"N9","",700,"","",""
17474_700,796,"N10","",700,"","",""
17475_700,796,"N16","",700,"","",""
17476_700,796,"N20","",700,"","",""
17477_700,796,"N22","",700,"","",""
17478_700,796,"N23","",700,"","",""
17479_700,796,"N24","",700,"","",""
17480_700,796,"N25","",700,"","",""
17481_700,796,"N26","",700,"","",""
17482_700,796,"N30","",700,"","",""
17483_700,796,"N33","",700,"","",""
17484_700,796,"N34","",700,"","",""
17485_700,796,"N35","",700,"","",""
17486_700,796,"N39","",700,"","",""
17487_700,796,"N40","",700,"","",""
17488_700,796,"N42","",700,"","",""
17489_700,796,"N50","",700,"","",""
17490_700,796,"N52","",700,"","",""
17491_700,796,"N53","",700,"","",""
17492_700,796,"N56","",700,"","",""
17493_700,796,"N58","",700,"","",""
17494_700,796,"N60","",700,"","",""
17495_700,796,"N61","",700,"","",""
17496_700,796,"N62","",700,"","",""
17497_700,796,"N65","",700,"","",""
17498_700,796,"N67","",700,"","",""
17499_700,796,"N68","",700,"","",""
17500_700,796,"N69","",700,"","",""
17501_700,796,"N70","",700,"","",""
17502_700,796,"N79","",700,"","",""
17503_700,796,"N81","",700,"","",""
17504_700,796,"N84","",700,"","",""
17505_700,796,"N88","",700,"","",""
17506_700,796,"N90","",700,"","",""
17507_700,796,"N91","",700,"","",""
17508_700,796,"N94","",700,"","",""
17509_700,796,"N95","",700,"","",""
17510_700,796,"N97","",700,"","",""
17511_700,796,"TXL","",700,"","",""
17512_400,796,"U1","",400,"","",""
17514_400,796,"U2","",400,"","",""
17515_400,796,"U3","",400,"","",""
17516_400,796,"U4","",400,"","",""
17518_400,796,"U5","",400,"","",""
17521_400,796,"U6","",400,"","",""
17522_700,796,"U7","",700,"","",""
17523_400,796,"U7","",400,"","",""
17525_400,796,"U8","",400,"","",""
17526_400,796,"U9","",400,"","",""
17527_700,796,"X7","",700,"","",""
17528_700,796,"X9","",700,"","",""
17529_700,796,"X10","",700,"","",""
17530_700,796,"X11","",700,"","",""
17531_700,796,"X21","",700,"","",""
17532_700,796,"X33","",700,"","",""
17533_700,796,"X34","",700,"","",""
17534_700,796,"X49","",700,"","",""
17535_700,796,"X54","",700,"","",""
17536_700,796,"X69","",700,"","",""
17537_700,796,"X76","",700,"","",""
17538_700,796,"X83","",700,"","",""
17549_700,796,"M13","",700,"","",""
17609_700,796,"M4","",700,"","",""
17619_700,796,"310","",700,"","",""
18374_700,796,"169","",700,"","",""
19019_700,796,"365","",700,"","",""
19020_700,796,"X36","",700,"","",""
19874_700,796,"37","",700,"","",""
5332_700,251,"466","",700,"","",""
5333_700,251,"467","",700,"","",""
5334_700,251,"465","",700,"","",""
5335_700,251,"468","",700,"","",""
5336_700,251,"469","",700,"","",""
5337_700,251,"470","",700,"","",""
5338_700,251,"471","",700,"","",""
5339_700,251,"472","",700,"","",""
5340_700,251,"473","",700,"","",""
5341_700,251,"474","",700,"","",""
5342_700,251,"475","",700,"","",""
5343_700,251,"476","",700,"","",""
5344_700,251,"477","",700,"","",""
5345_700,251,"500","",700,"","",""
5346_700,251,"502","",700,"","",""
5348_700,251,"504","",700,"","",""
5350_700,251,"506","",700,"","",""
5351_700,251,"507","",700,"","",""
5352_700,251,"508","",700,"","",""
5353_700,251,"509","",700,"","",""
5354_700,251,"510","",700,"","",""
5355_700,251,"512","",700,"","",""
5356_700,251,"513","",700,"","",""
5358_700,251,"516","",700,"","",""
5359_700,251,"517","",700,"","",""
5362_700,251,"721","",700,"","",""
5363_700,251,"722","",700,"","",""
5364_700,251,"723","",700,"","",""
5365_700,251,"724","",700,"","",""
5366_700,251,"725","",700,"","",""
5368_700,251,"726","",700,"","",""
5369_700,251,"727","",700,"","",""
5370_700,251,"728","",700,"","",""
5371_700,251,"729","",700,"","",""
5372_700,251,"730","",700,"","",""
5373_700,251,"731","",700,"","",""
5376_700,251,"733","",700,"","",""
5377_700,251,"734","",700,"","",""
5378_700,251,"735","",700,"","",""
5379_700,251,"736","",700,"","",""
5380_700,251,"737","",700,"","",""
5381_700,251,"738","",700,"","",""
5382_700,251,"739","",700,"","",""
5384_700,251,"743","",700,"","",""
11216_700,251,"518","",700,"","",""
15373_3,251,"511","",3,"","",""
15374_3,251,"519","",3,"","",""
15714_700,251,"742","",700,"","",""
15715_700,251,"744","",700,"","",""
16009_700,251,"741","",700,"","",""
17809_700,816,"901","",700,"","",""
17810_3,816,"902","",3,"","",""
17810_700,816,"902","",700,"","",""
17811_3,816,"903","",3,"","",""
17811_700,816,"903","",700,"","",""
17812_3,816,"904","",3,"","",""
17812_700,816,"904","",700,"","",""
17813_3,816,"905","",3,"","",""
17813_700,816,"905","",700,"","",""
17814_3,816,"912","",3,"","",""
17814_700,816,"912","",700,"","",""
17815_3,816,"913","",3,"","",""
17815_700,816,"913","",700,"","",""
17816_3,816,"915","",3,"","",""
17816_700,816,"915","",700,"","",""
17817_3,816,"917","",3,"","",""
17817_700,816,"917","",700,"","",""
17818_3,816,"919","",3,"","",""
17818_700,816,"919","",700,"","",""
17819_3,816,"920","",3,"","",""
17819_700,816,"920","",700,"","",""
17820_3,816,"923","",3,"","",""
17820_700,816,"923","",700,"","",""
17821_3,816,"924","",3,"","",""
17821_700,816,"924","",700,"","",""
17822_3,816,"925","",3,"","",""
17822_700,816,"925","",700,"","",""
17823_3,816,"931","",3,"","",""
17823_700,816,"931","",700,"","",""
17824_3,816,"932","",3,"","",""
17824_700,816,"932","",700,"","",""
17825_3,816,"933","",3,"","",""
17825_700,816,"933","",700,"","",""
17826_3,816,"934","",3,"","",""
17826_700,816,"934","",700,"","",""
17827_700,816,"935","",700,"","",""
17828_3,816,"936","",3,"","",""
17828_700,816,"936","",700,"","",""
17829_700,816,"937","",700,"","",""
17830_700,816,"938","",700,"","",""
17831_700,816,"939","",700,"","",""
17832_700,816,"940","",700,"","",""
17833_700,816,"941","",700,"","",""
17834_700,816,"942","",700,"","",""
17835_700,816,"943","",700,"","",""
17836_3,816,"944","",3,"","",""
17836_700,816,"944","",700,"","",""
17837_3,816,"945","",3,"","",""
17837_700,816,"945","",700,"","",""
17838_3,816,"946","",3,"","",""
17838_700,816,"946","",700,"","",""
17839_3,816,"947","",3,"","",""
17839_700,816,"947","",700,"","",""
17840_3,816,"948","",3,"","",""
17840_700,816,"948","",700,"","",""
17841_3,816,"949","",3,"","",""
17841_700,816,"949","",700,"","",""
17842_3,816,"950","",3,"","",""
17842_700,816,"950","",700,"","",""
17843_3,816,"951","",3,"","",""
17843_700,816,"951","",700,"","",""
17844_3,816,"952","",3,"","",""
17844_700,816,"952","",700,"","",""
17845_700,816,"953","",700,"","",""
17846_3,816,"954","",3,"","",""
17846_700,816,"954","",700,"","",""
17847_3,816,"955","",3,"","",""
17847_700,816,"955","",700,"","",""
17848_3,816,"957","",3,"","",""
17848_700,816,"957","",700,"","",""
17849_3,816,"958","",3,"","",""
17849_700,816,"958","",700,"","",""
17850_3,816,"960","",3,"","",""
17850_700,816,"960","",700,"","",""
17851_3,816,"971","",3,"","",""
17851_700,816,"971","",700,"","",""
17852_3,816,"972","",3,"","",""
17852_700,816,"972","",700,"","",""
17853_3,816,"973","",3,"","",""
17853_700,816,"973","",700,"","",""
17854_700,816,"974","",700,"","",""
17855_3,816,"975","",3,"","",""
17855_700,816,"975","",700,"","",""
17856_3,816,"976","",3,"","",""
17856_700,816,"976","",700,"","",""
17857_700,816,"977","",700,"","",""
17858_3,816,"978","",3,"","",""
17858_700,816,"978","",700,"","",""
4221_700,241,"864","",700,"","",""
4222_700,241,"865","",700,"","",""
4223_700,241,"868","",700,"","",""
4224_700,241,"873","",700,"","",""
4225_700,241,"874","",700,"","",""
4226_700,241,"875","",700,"","",""
4227_700,241,"876","",700,"","",""
4228_700,241,"877","",700,"","",""
4229_700,241,"878","",700,"","",""
4231_700,241,"880","",700,"","",""
4232_700,241,"881","",700,"","",""
4234_700,241,"883","",700,"","",""
4235_700,241,"884","",700,"","",""
4236_700,241,"885","",700,"","",""
4237_700,241,"886","",700,"","",""
4238_700,241,"887","",700,"","",""
4239_700,241,"890","",700,"","",""
4240_700,241,"891","",700,"","",""
4241_700,241,"892","",700,"","",""
4242_700,241,"893","",700,"","",""
4243_700,241,"894","",700,"","",""
4244_700,241,"895","",700,"","",""
4245_700,241,"896","",700,"","",""
4247_700,241,"898","",700,"","",""
4248_700,241,"899","",700,"","",""
4249_700,241,"900","",700,"","",""
4250_700,241,"901","",700,"","",""
4251_700,241,"902","",700,"","",""
4253_700,241,"904","",700,"","",""
4254_700,241,"905","",700,"","",""
4256_700,241,"907","",700,"","",""
4257_700,241,"908","",700,"","",""
4258_700,241,"909","",700,"","",""
4259_700,241,"910","",700,"","",""
4260_700,241,"911","",700,"","",""
4261_700,241,"912","",700,"","",""
4262_700,241,"913","",700,"","",""
4264_700,241,"915","",700,"","",""
4265_700,241,"916","",700,"","",""
4266_700,241,"918","",700,"","",""
4267_700,241,"919","",700,"","",""
4268_700,241,"920","",700,"","",""
4269_700,241,"921","",700,"","",""
4270_700,241,"922","",700,"","",""
4271_700,241,"923","",700,"","",""
4281_700,241,"861","",700,"","",""
4287_700,241,"862","",700,"","",""
7251_700,241,"869","",700,"","",""
10234_700,241,"917","",700,"","",""
14428_700,241,"863","",700,"","",""
14733_700,241,"867","",700,"","",""
16374_700,241,"882","",700,"","",""
18619_700,241,"RB12","",700,"","",""
18624_700,241,"893","",700,"","",""
19009_700,241,"897","",700,"","",""
19189_700,241,"RB25","",700,"","",""
19244_700,241,"914","",700,"","",""
19339_700,241,"RB27","",700,"","",""
19879_700,241,"RB27","",700,"","",""
19884_700,241,"RB27","",700,"","",""
12889_900,516,"2","",900,"","",""
12890_900,516,"3","",900,"","",""
12891_900,516,"4","",900,"","",""
13104_700,516,"11","",700,"","",""
13105_700,516,"12","",700,"","",""
13106_700,516,"13","",700,"","",""
13107_700,516,"15","",700,"","",""
13108_700,516,"16","",700,"","",""
13109_700,516,"18","",700,"","",""
13110_700,516,"19","",700,"","",""
13111_700,516,"20","",700,"","",""
13113_700,516,"21","",700,"","",""
13114_700,516,"22","",700,"","",""
13115_700,516,"23","",700,"","",""
13116_700,516,"25","",700,"","",""
13118_700,516,"26","",700,"","",""
13119_700,516,"27","",700,"","",""
13120_700,516,"29","",700,"","",""
13122_700,516,"32","",700,"","",""
13123_700,516,"33","",700,"","",""
13125_700,516,"35","",700,"","",""
13126_700,516,"37","",700,"","",""
13127_700,516,"39","",700,"","",""
13130_700,516,"41","",700,"","",""
13131_700,516,"42","",700,"","",""
13132_700,516,"43","",700,"","",""
13133_700,516,"44","",700,"","",""
13134_700,516,"46","",700,"","",""
13136_700,516,"47","",700,"","",""
13443_700,516,"17","",700,"","",""
14979_700,516,"38","",700,"","",""
15020_700,516,"14","",700,"","",""
15024_700,516,"24","",700,"","",""
15025_700,516,"28","",700,"","",""
15026_700,516,"30","",700,"","",""
15027_700,516,"34","",700,"","",""
15029_700,516,"48","",700,"","",""
15058_700,516,"12-14","",700,"","",""
15059_700,516,"12-35","",700,"","",""
15060_700,516,"15-44","",700,"","",""
15061_700,516,"15-47","",700,"","",""
15062_700,516,"23-26","",700,"","",""
15063_700,516,"35-37","",700,"","",""
15624_700,516,"10","",700,"","",""
15626_700,516,"5N","",700,"","",""
15659_700,516,"EV 5","",700,"","",""
17539_700,516,"EV1","",700,"","",""
17540_700,516,"3N","",700,"","",""
17541_700,516,"4N","",700,"","",""
13023_700,566,"411","",700,"","",""
13024_700,566,"412","",700,"","",""
13025_700,566,"413","",700,"","",""
13026_700,566,"400","",700,"","",""
13027_700,566,"401","",700,"","",""
13028_700,566,"402","",700,"","",""
13029_700,566,"403","",700,"","",""
13030_700,566,"404","",700,"","",""
13031_700,566,"405","",700,"","",""
13032_700,566,"406","",700,"","",""
13033_700,566,"407","",700,"","",""
13034_700,566,"418","",700,"","",""
13035_700,566,"420","",700,"","",""
13036_700,566,"424","",700,"","",""
13037_700,566,"428","",700,"","",""
13038_700,566,"429","",700,"","",""
13039_700,566,"430","",700,"","",""
13040_700,566,"431","",700,"","",""
13041_700,566,"432","",700,"","",""
13042_700,566,"433","",700,"","",""
13043_700,566,"434","",700,"","",""
13044_700,566,"435","",700,"","",""
13045_700,566,"436","",700,"","",""
13046_700,566,"440","",700,"","",""
13047_700,566,"441","",700,"","",""
13048_700,566,"442","",700,"","",""
13049_700,566,"443","",700,"","",""
13051_700,566,"445","",700,"","",""
13052_700,566,"447","",700,"","",""
13053_700,566,"448","",700,"","",""
13054_700,566,"452","",700,"","",""
13055_700,566,"453","",700,"","",""
13056_700,566,"454","",700,"","",""
13061_700,566,"A400","",700,"","",""
14373_700,566,"414","",700,"","",""
14374_700,566,"451","",700,"","",""
18339_700,841,"926","",700,"","",""
18340_700,841,"927","",700,"","",""
18341_700,841,"928","",700,"","",""
18342_700,841,"929","",700,"","",""
18343_700,841,"931","",700,"","",""
18344_3,841,"932","",3,"","",""
18344_700,841,"932","",700,"","",""
18345_3,841,"933","",3,"","",""
18345_700,841,"933","",700,"","",""
18346_700,841,"934","",700,"","",""
18347_700,841,"936","",700,"","",""
18348_700,841,"937","",700,"","",""
18349_700,841,"939","",700,"","",""
18350_700,841,"940","",700,"","",""
18351_700,841,"941","",700,"","",""
18352_700,841,"942","",700,"","",""
18353_700,841,"943","",700,"","",""
18354_700,841,"944","",700,"","",""
18355_700,841,"945","",700,"","",""
18356_3,841,"946","",3,"","",""
18356_700,841,"946","",700,"","",""
18357_700,841,"947","",700,"","",""
18358_3,841,"948","",3,"","",""
18359_3,841,"949","",3,"","",""
18360_700,841,"950","",700,"","",""
18361_700,841,"951","",700,"","",""
18362_700,841,"955","",700,"","",""
18363_700,841,"956","",700,"","",""
18364_700,841,"957","",700,"","",""
18365_700,841,"958","",700,"","",""
18366_700,841,"959","",700,"","",""
18367_700,841,"966","",700,"","",""
18368_700,841,"967","",700,"","",""
18369_700,841,"968","",700,"","",""
18370_700,841,"969","",700,"","",""
18371_700,841,"970","",700,"","",""
18372_700,841,"R931","",700,"","",""
18373_3,841,"R933","",3,"","",""
18373_700,841,"R933","",700,"","",""
18569_700,841,"923","",700,"","",""
1546_700,150,"692","",700,"","",""
1547_700,150,"693","",700,"","",""
1548_700,150,"694","",700,"","",""
1549_700,150,"695","",700,"","",""
1550_700,150,"696","",700,"","",""
1551_700,150,"697","",700,"","",""
1552_700,150,"N15","",700,"","",""
1554_700,150,"N17","",700,"","",""
1555_1000,150,"F1","",1000,"","",""
1556_900,150,"92","",900,"","",""
1558_900,150,"94","",900,"","",""
4456_700,150,"698","",700,"","",""
5596_700,150,"699","",700,"","",""
5631_700,150,"691","",700,"","",""
5633_900,150,"91","",900,"","",""
5635_900,150,"96","",900,"","",""
7361_700,150,"690","",700,"","",""
7362_900,150,"93","",900,"","",""
11362_700,150,"N14","",700,"","",""
11364_700,150,"X15","",700,"","",""
13438_900,150,"99","",900,"","",""
15273_700,150,"603","",700,"","",""
15274_700,150,"605","",700,"","",""
15275_700,150,"606","",700,"","",""
15276_700,150,"609","",700,"","",""
15277_700,150,"638","",700,"","",""
15278_700,150,"639","",700,"","",""
15279_700,150,"X5","",700,"","",""
15280_900,150,"98","",900,"","",""
15959_700,150,"612","",700,"","",""
16915_700,150,"616","",700,"","",""
18744_700,150,"634","",700,"","",""
18964_700,150,"EV","",700,"","",""
19904_700,150,"EV","",700,"","",""
9776_700,341,"520","",700,"","",""
9777_700,341,"521","",700,"","",""
9778_700,341,"522","",700,"","",""
9779_700,341,"525","",700,"","",""
9783_700,341,"534","",700,"","",""
9784_700,341,"536","",700,"","",""
9785_700,341,"542","",700,"","",""
9786_700,341,"544","",700,"","",""
9787_700,341,"546","",700,"","",""
9788_700,341,"550","",700,"","",""
9789_700,341,"551","",700,"","",""
9790_700,341,"552","",700,"","",""
9791_700,341,"553","",700,"","",""
9792_700,341,"558","",700,"","",""
9794_700,341,"560","",700,"","",""
9796_700,341,"565","",700,"","",""
9797_700,341,"570","",700,"","",""
9798_700,341,"575","",700,"","",""
9799_700,341,"577","",700,"","",""
9800_700,341,"578","",700,"","",""
9801_700,341,"579","",700,"","",""
9802_700,341,"581","",700,"","",""
9805_700,341,"584","",700,"","",""
9806_700,341,"585","",700,"","",""
9807_700,341,"586","",700,"","",""
9808_700,341,"587","",700,"","",""
9809_700,341,"592","",700,"","",""
9810_700,341,"595","",700,"","",""
9812_700,341,"598","",700,"","",""
9813_700,341,"599","",700,"","",""
16449_700,341,"571","",700,"","",""
16694_700,341,"524","",700,"","",""
17159_700,341,"522e","",700,"","",""
18609_700,341,"526","",700,"","",""
18610_700,341,"527","",700,"","",""
15719_700,726,"701","",700,"","",""
15720_700,726,"702","",700,"","",""
15721_700,726,"703","",700,"","",""
15722_700,726,"704","",700,"","",""
15723_700,726,"705","",700,"","",""
15724_700,726,"706","",700,"","",""
15725_700,726,"707","",700,"","",""
15726_700,726,"711","",700,"","",""
15727_700,726,"712","",700,"","",""
15728_700,726,"713","",700,"","",""
15729_700,726,"714","",700,"","",""
15730_700,726,"715","",700,"","",""
15732_700,726,"717","",700,"","",""
15733_700,726,"719","",700,"","",""
15734_700,726,"740","",700,"","",""
15735_700,726,"741","",700,"","",""
15736_700,726,"742","",700,"","",""
15737_700,726,"743","",700,"","",""
15738_700,726,"744","",700,"","",""
15739_700,726,"745","",700,"","",""
15740_700,726,"746","",700,"","",""
15742_700,726,"748","",700,"","",""
15745_700,726,"752","",700,"","",""
15747_700,726,"754","",700,"","",""
15749_700,726,"756","",700,"","",""
15750_700,726,"757","",700,"","",""
15752_700,726,"759","",700,"","",""
15753_700,726,"762","",700,"","",""
15755_700,726,"764","",700,"","",""
15756_700,726,"766","",700,"","",""
15757_700,726,"770","",700,"","",""
15758_700,726,"771","",700,"","",""
15760_700,726,"777","",700,"","",""
15762_700,726,"779","",700,"","",""
15765_700,726,"782","",700,"","",""
15766_700,726,"783","",700,"","",""
15767_700,726,"784","",700,"","",""
15768_700,726,"785","",700,"","",""
15769_700,726,"787","",700,"","",""
15770_700,726,"788","",700,"","",""
15773_700,726,"791","",700,"","",""
15774_700,726,"792","",700,"","",""
15776_700,726,"794","",700,"","",""
12333_100,472,"BKB","",100,"","",""
12531_900,489,"87","",900,"","",""
12532_900,486,"88","",900,"","",""
12533_900,487,"89","",900,"","",""
12708_700,488,"541","",700,"","",""
12709_700,488,"542","",700,"","",""
12710_700,488,"543","",700,"","",""
12711_700,488,"544","",700,"","",""
12712_700,488,"545","",700,"","",""
15296_700,138,"SXF 2","",700,"","",""
15669_700,721,"A/690","",700,"","",""
15670_700,721,"B/691","",700,"","",""
15671_700,721,"C/692","",700,"","",""
15672_700,721,"G/693","",700,"","",""
16334_100,596,"RB27","",100,"","",""
16335_1000,487,"F39","",1000,"","",""
16339_100,596,"RB26","",100,"","",""
16369_100,751,"RB73","",100,"","",""
16370_100,751,"RB74","",100,"","",""
16744_700,761,"TI","",700,"","",""
16910_100,596,"RB25","",100,"","",""
16911_100,596,"RB35","",100,"","",""
16914_100,596,"RB60","",100,"","",""
16916_100,596,"RB61","",100,"","",""
16917_100,596,"RB62","",100,"","",""
16919_100,596,"RB63","",100,"","",""
16924_100,596,"RB36","",100,"","",""
17154_700,741,"A05","",700,"","",""
17564_100,596,"RB12","",100,"","",""
17566_100,596,"RB54","",100,"","",""
19359_100,751,"RB15","",100,"","",""
19364_100,751,"RB16","",100,"","",""
16345_100,731,"RB33","",100,"","",""
16349_100,731,"RB51","",100,"","",""
16835_100,731,"RE4","",100,"","",""
16835_700,731,"RE4","",700,"","",""
16864_100,731,"OE60V","",100,"","",""
16865_100,731,"OE65","",100,"","",""
16867_100,731,"RB13","",100,"","",""
16868_100,731,"RB14","",100,"","",""
16869_100,731,"RE2","",100,"","",""
17040_700,731,"EV46","",700,"","",""
17044_700,731,"EV2","",700,"","",""
17045_700,731,"EV4","",700,"","",""
17047_700,731,"EV65","",700,"","",""
17234_100,731,"RB34","",100,"","",""
18969_100,731,"RB46","",100,"","",""
16934_700,772,"800","",700,"","",""
16935_700,772,"850","",700,"","",""
16936_700,772,"851","",700,"","",""
16937_700,772,"852","",700,"","",""
16938_700,772,"853","",700,"","",""
16939_700,772,"854","",700,"","",""
16940_700,772,"855","",700,"","",""
16941_700,772,"856","",700,"","",""
16942_700,772,"857","",700,"","",""
16943_700,772,"858","",700,"","",""
16944_700,772,"860","",700,"","",""
16945_700,772,"861","",700,"","",""
16946_700,772,"868","",700,"","",""
16947_700,772,"869","",700,"","",""
16948_700,772,"870","",700,"","",""
16949_700,772,"872","",700,"","",""
16950_700,772,"873","",700,"","",""
16951_700,772,"876","",700,"","",""
16952_700,772,"877","",700,"","",""
16953_700,772,"879","",700,"","",""
16954_700,772,"880","",700,"","",""
16955_700,772,"881","",700,"","",""
16956_700,772,"882","",700,"","",""
16957_700,772,"884","",700,"","",""
16958_700,772,"885","",700,"","",""
16959_700,772,"886","",700,"","",""
16960_700,772,"887","",700,"","",""
16961_700,772,"888","",700,"","",""
16962_700,772,"889","",700,"","",""
16963_700,772,"890","",700,"","",""
16964_700,772,"891","",700,"","",""
16965_700,772,"892","",700,"","",""
16966_700,772,"894","",700,"","",""
17680_100,811,"RB45","",100,"","",""
18709_700,346,"601","",700,"","",""
18710_700,346,"602","",700,"","",""
18711_700,346,"603","",700,"","",""
18712_700,346,"604","",700,"","",""
18713_700,346,"605","",700,"","",""
18714_700,346,"606","",700,"","",""
18715_700,346,"607","",700,"","",""
18716_700,346,"608","",700,"","",""
18717_700,346,"609","",700,"","",""
18718_700,346,"610","",700,"","",""
18719_700,346,"611","",700,"","",""
18720_700,346,"612","",700,"","",""
18721_700,346,"613","",700,"","",""
18722_700,346,"614","",700,"","",""
18723_700,346,"615","",700,"","",""
18724_700,346,"616","",700,"","",""
18725_700,346,"617","",700,"","",""
18726_700,346,"618","",700,"","",""
18727_700,346,"619","",700,"","",""
18728_700,346,"620","",700,"","",""
18729_700,346,"621","",700,"","",""
18730_700,346,"622","",700,"","",""
18731_700,346,"623","",700,"","",""
18732_700,346,"624","",700,"","",""
18733_700,346,"625","",700,"","",""
18734_700,346,"626","",700,"","",""
18735_700,346,"641","",700,"","",""
18736_700,346,"642","",700,"","",""
18737_700,346,"643","",700,"","",""
18738_700,346,"661","",700,"","",""
19084_700,93,"401","",700,"","",""
19085_700,93,"403","",700,"","",""
19086_700,93,"411","",700,"","",""
19087_700,93,"413","",700,"","",""
19088_700,93,"414","",700,"","",""
19089_700,93,"416","",700,"","",""
19090_700,93,"419","",700,"","",""
19091_700,93,"421","",700,"","",""
19092_700,93,"424","",700,"","",""
19093_700,93,"425","",700,"","",""
19094_700,93,"427","",700,"","",""
19095_700,93,"428","",700,"","",""
19096_700,93,"431","",700,"","",""
19097_700,93,"432","",700,"","",""
19098_700,93,"435","",700,"","",""
19099_700,93,"441","",700,"","",""
19100_700,93,"445","",700,"","",""
19101_700,93,"447","",700,"","",""
19102_700,93,"448","",700,"","",""
19103_700,93,"450","",700,"","",""
19104_700,93,"451","",700,"","",""
19105_700,93,"452","",700,"","",""
19106_700,93,"453","",700,"","",""
19107_700,93,"454","",700,"","",""
19108_700,93,"455","",700,"","",""
19109_700,93,"456","",700,"","",""
19110_700,93,"457","",700,"","",""
19111_700,93,"459","",700,"","",""
19112_700,93,"460","",700,"","",""
19113_700,93,"462","",700,"","",""
19114_700,93,"463","",700,"","",""
19115_700,93,"464","",700,"","",""
19116_700,93,"465","",700,"","",""
19117_700,93,"467","",700,"","",""
19118_700,93,"468","",700,"","",""
19119_700,93,"469","",700,"","",""
19120_700,93,"471","",700,"","",""
19121_700,93,"472","",700,"","",""
19122_700,93,"473","",700,"","",""
19123_700,93,"474","",700,"","",""
19124_700,93,"475","",700,"","",""
19125_700,93,"479","",700,"","",""
19126_700,93,"481","",700,"","",""
19127_700,93,"482","",700,"","",""
19128_700,93,"484","",700,"","",""
19129_700,93,"486","",700,"","",""
19130_700,93,"489","",700,"","",""
19131_700,93,"491","",700,"","",""
19132_700,93,"492","",700,"","",""
19133_700,93,"494","",700,"","",""
19134_700,93,"501","",700,"","",""
19135_700,93,"502","",700,"","",""
19136_700,93,"503","",700,"","",""
19137_700,93,"504","",700,"","",""
19138_700,93,"505","",700,"","",""
19139_700,93,"506","",700,"","",""
19140_700,93,"508","",700,"","",""
19141_700,93,"509","",700,"","",""
19142_700,93,"510","",700,"","",""
19143_700,93,"511","",700,"","",""
19144_700,93,"512","",700,"","",""
19145_700,93,"514","",700,"","",""
19146_700,93,"515","",700,"","",""
19147_700,93,"517","",700,"","",""
19148_700,93,"518","",700,"","",""
19149_700,93,"519","",700,"","",""
19150_700,93,"531","",700,"","",""
19279_700,93,"496","",700,"","",""
